	twss-probability	sentence
569	1.0	we'll shove pimentos up our ass by zeus we'll exterminate the juice und subjugate the whole damn great beyond in here we keep our wieners in our packages that's how it is it sucks but that's the way our buns keep fresh and pure baby, baby but once we're out the doors it's not a sin for us to let you slip it in in other words we finally get to fuck and love, and hug and fuck, and fuck and feel, and share and fuck the gods will always care for us they won't squeeze us out their butts we cannot overstate how confident we are that our beliefs are accurate and nothing awful happens to us in the great beyond kiss my brownish-yellow ass!
491	0.997	we need to unite and stop focusing on each other's differencesespecially in immature and outdated ways.
446	0.992	is it cool if i just go swap it?
1025	0.991	we both drop it right and we drop it all the time.
129	0.99	everything we've ever known is a dirt-covered pile of shitjacking off in our fucking facescovering our eyes with their comeso come-covered we can't fucking see!
824	0.99	it was in front of us the whole time.
680	0.986	well, i feel like that makes it hard to have a rational conversation.
1225	0.986	squeeze it all over my face.
972	0.981	and i would do anything for love i'd run right into hell and back i would do anything for love i'll never lie to you and that's a fact ah, ah but i'll never forgive myself if we don't go all the way tonight and i would do anything for love but i won't do that no, i won't do that i would do anything for love anything you've been dreaming of but i just won't do that i would do anything for love anything you've been dreaming of but i just won't do that aah!
65	0.975	you just need to relax and open wide.
1080	0.973	suck my pink cock.
234	0.971	i can't wait to finally just get up in there.
772	0.969	i mean, honestly, guyswho in this package would ever let carl get up in them?
271	0.966	it wasn't even that-i mean, it was fine.
121	0.966	you know, i love the way your face just kind of gives up halfway down.
444	0.96	i am destined to soak up their sweet juicesas they dribble down my flaps.
786	0.955	i mean, nothing bad's ever happened from just the tips.
691	0.95	and i always kind of thought that it didn't quite add up.
441	0.949	tripping balls for three hours really works up an appetite.
1189	0.948	right in my guac and balls.
208	0.948	i can still get up in there!
904	0.941	i was scraped off and discardedand eventually found myself stuck to a shoe that dropped me here.
1134	0.931	first you smush sally, and then you try to fuck up red, white and blue day for us?!
642	0.925	just take it easy, just breathe, dude, just breathe.
847	0.925	put it in there.
815	0.924	i need to go to the dark aisle, and i want you to come with me.
882	0.923	wow, i can't-frank, brenda, come on, are you guys gonna weigh in here?
863	0.923	i'll just- i'll just eat dirt and wipe my ass with sticks!
885	0.922	oh, it just got better!
1128	0.917	come on, honeybun, suck it in.
1160	0.909	it's hard when your head's up my ass and you're yanking on the scrot.
667	0.891	yeah, that's it!
778	0.891	i really needed that douche.
1199	0.882	hole's a hole, bro.
583	0.869	i could stillget up in there.
605	0.868	just come on, we have to get home before it's too late.
709	0.867	but fuck everybody.
1239	0.866	sometimes i get nervous and i'll sing!
1192	0.863	yeah, banana's whole face peeled off.
321	0.855	that actually makes me feel a little better.
596	0.855	when you guys fell out of that cart, i could have done something, but i didn't.
509	0.854	well, you know, it's a long, pretty sad story, actuallyand i'd rather not get into it right now.
784	0.849	i'm blowing my fucking load.
513	0.848	and this is the weirdest thing that i've done so far, bro.
555	0.84	it's too big!
954	0.828	hey, guys, come over here, follow me!
1182	0.822	okay, i totally get you don't wanna go in there.
304	0.82	come on, put me down.
1045	0.818	i was about to beat on you most viciously and in my opinion appropriately.
769	0.813	put me down!
443	0.796	in time, everyone accepted this false truth.
697	0.795	the only thing i've ever pushed is my peaceful agenda.
1040	0.791	they need to know how wrong they all are before it's too late!
338	0.791	all the proof you need is right in front of you.
729	0.79	they would go out those doors happy instead of shitting themselves.
855	0.79	okay, you go over there and you stay in touch at the bar right there, okay?
393	0.789	i've been dealing with this whole thing incredibly poorly.
1048	0.785	can't this thing go any faster?
205	0.782	get your hands off me!
1246	0.777	you couldn't fit an eggplant in there!
738	0.776	oh, you'd be amazed what i could fit in here.
554	0.773	you're just trying to hurt me!
46	0.768	you have to come with me right now.
594	0.76	i bet you jackrabbit for a quick seconds.
1033	0.753	i just need to rest my eyes for a few.
839	0.735	because it makes them stronger.
888	0.735	this is so cool!
600	0.735	anyway, at least it's still distracting them from the truth that they get brutally devoured.
957	0.73	the melody came to me one nightwhen i was getting super, super, super baked.
715	0.73	this is what i get for giving in to my disgusting urges.
761	0.726	come on, guys, this affects all of us!
693	0.72	it's slipping off!
1070	0.719	you got it!
782	0.713	i got it this time.
856	0.712	i didn't write that!
283	0.699	i think i might be forming some beginningsof what could be the flower that blossoms into an idea.
435	0.687	that is all right.
661	0.686	we sneak into another package and still be fresh enough to get chosen.
1021	0.683	i love juice!
421	0.678	how am i supposed to get back to frank?
265	0.672	let's just say, what i want involves much more than just the tips just the tips what i want is much more than just the tips with these hungry eyes one look at you and i can't disguise i've got oh!
733	0.665	how the fuck are we supposed to give them that?
455	0.659	this is gonna hurt so fucking much.
1227	0.656	it's fucking crazy!
1075	0.653	there is a great beyond without youand i'm gonna go there and fill myself with something else!
39	0.652	i'll just be out here dry-humping this -ouncer.
80	0.646	what the fuck is going on with these two?
109	0.646	it can't end like this.
958	0.641	remixing my shit without my permish.
540	0.638	yeah, i just came over here.
577	0.638	i wish this god would wake up already.
180	0.626	the human is no longer aware of the fourth dimension.
867	0.619	i'm giving it everything i have.
162	0.614	snap the fuck out of it and run!
752	0.61	we both want the same thing.
1077	0.609	i mean, fuck.
826	0.607	and when a bun this fresh is into you, all you ask is when and how deep.
116	0.607	god, i love them so fucking much.
376	0.605	i mean, whose side are you on?
62	0.59	let go of me!
93	0.588	but now that you have shattered one truth, it is time for you to learnthat we are not real!
927	0.581	i've never opened up.
590	0.581	that went up my ass!
836	0.579	put your whole head in the bag there.
891	0.578	actually, i feel great.
8	0.574	i'll be right back, all right?
424	0.572	just act happy.
1074	0.565	lined up, waiting to get filled with my meat.
351	0.559	then they went inside me and then- and then splooge!
43	0.558	first, the gods stretched me till it hurt.
334	0.556	is it me or is everyone looking at us?
746	0.555	fuck me, right?
232	0.552	by this time tomorrow, we're all gonna be inches deep in some bun, son.
246	0.535	oh, yeah, go in.
923	0.524	and for that, i give you mad props.
833	0.523	get off of me!
809	0.516	where's that fucking sausage?
349	0.515	you and me, finally gonna be official.
50	0.509	down to fuck a sausage up!
433	0.508	it's just beautiful!
682	0.505	the thing about the great beyond iswe invented it!
850	0.483	nobody fucking touch me!
914	0.481	i got bedside manner!
380	0.481	i might as well just die.
146	0.48	i got them right here, amigo.
844	0.478	fucking sucks, right?
587	0.473	yeah, that's right.
821	0.47	we gotta go there and check it out!
337	0.468	more like inches deep for barry, you deformed nerd.
524	0.463	i can't take full credit.
838	0.462	oh, sweet fucking fuck.
1095	0.461	i really can't thank you enough.
624	0.451	i'm so happy the gods put our packages together.
607	0.447	so where was i?
895	0.443	that's my guy!
404	0.441	i'm just gonna keep going in.
466	0.44	just passing through.
774	0.438	take it away, brah!
817	0.437	just get down from the fucking-aah!
1039	0.436	i begged them to stop, but they just wouldn't.
1068	0.431	even that i didn't push, you know.
280	0.427	come on, guys.
688	0.422	okay, yeah, great.
253	0.422	there it is.
969	0.417	i'm out of my fucking box!
71	0.414	i gotta get out!
388	0.411	maybe i'll really mix it up.
543	0.411	and cover her up already.
210	0.406	after all the times he stood up for me, you know.
677	0.401	that last part was all you had to say, really.
33	0.4	it's almost red, white and blue day.
1058	0.399	i'll go in super-duper fast, in and out, i'll be five minutes.
317	0.398	kiss me hard on the mouth, why don't you?
980	0.397	come at me, bros.
1136	0.393	so who am i?
358	0.39	but i can't try it.
419	0.377	this feels amazing.
1087	0.376	i'm a hard, horny taco.
584	0.376	is that bad?
369	0.375	and stops eating us!
1163	0.374	it's fine, right?
103	0.374	let's just stop this, okay?
506	0.372	while tripping balls, firewater and imade an important metaphysical breakthrough.
395	0.372	can i get by?
224	0.367	oh, only the most intelligent being alive.
894	0.366	we can't piss the gods off any more than we already have.
837	0.366	i need to just feel you.
97	0.361	oh, he's coming at us!
578	0.361	he's coming, he's coming.
1207	0.36	and you are in grande danger.
0	0.36	i was just trying to save frank.
922	0.357	that was amazing.
974	0.357	just as bad as i do yeah!
365	0.354	and when he stops using us!
440	0.351	oh, okay, there we go.
106	0.349	we need to hurry.
898	0.349	i blew it.
595	0.348	i mean, look how tight i am.
344	0.339	i can't hold on!
725	0.339	this is what i get for being a pussy.
1208	0.338	but luckily, it's not too late.
592	0.332	come on, let's see that smile.
920	0.328	no, this can't be real.
993	0.328	make it rain.
152	0.322	this is too much.
606	0.32	hey, man, be careful with this.
719	0.32	yes, i'm fine, but it was really scary.
360	0.318	yeah, i guess i kind of see myself in you too.
516	0.316	dude, we slept in again.
378	0.316	i got chosen!
247	0.316	fuck, that hurts so much!
172	0.314	i can't believe i got out of my package for youand you won't get back in one for me.
756	0.313	well, everybody told me not to do this.
268	0.313	slap yourself in the face, man.
705	0.311	i want you to come home with me.
1147	0.309	well, it did.
964	0.309	i know, right?
122	0.306	when he stops drinking us.
323	0.306	i can't do that.
758	0.304	just minding my own business.
1052	0.304	i reached out in a panic.
759	0.303	you guys are fucking nuts.
326	0.302	i want my mommy!
1179	0.301	as soon as we got out those doors- so you have learned the terrible truth.
153	0.301	ketchup, get your fucking hands off me.
1086	0.3	she's peeling me fucking skin!
74	0.293	is this real?
57	0.291	so long, asshole!
55	0.289	why would a god let you up in her smooth, perfect slizwhen you can't even squirt?
650	0.288	get your hands off of me.
1059	0.287	you really have.
905	0.286	i can warn frank.
737	0.285	i didn't mean for any of this to happen.
924	0.283	okay, whoa, whoa, easy.
1110	0.283	don't knock it till you try it, right?
525	0.281	that's good material.
558	0.28	over the years, they've grown bigger, stronger, fatter.
1020	0.277	fuck, i hate this fucking job!
298	0.277	we should go.
828	0.276	my friends are probably wondering where the hell i am.
1027	0.276	shut your mouths.
892	0.276	you know, my boner still hasn't gone down.
846	0.272	when i saw you, i felt inside myself a tingling-lingling sensation.
1248	0.271	not exactly what i was looking for, but fuck it, you know.
279	0.271	such dicks, right?
339	0.266	do not worry, bun.
293	0.264	i tried to warn everyone, they didn't believe me!
966	0.262	my little glove!
986	0.259	look at this fucking guy.
353	0.258	come on, barry, you're missing it, man!
690	0.256	he basically knows it already.
409	0.255	it was as though i saw myself in you.
722	0.255	oh, come on.
367	0.251	guys, i'm stuck!
1138	0.243	maybe i don't need to explain it because it's something i feel.
470	0.243	so looks like tomorrow's the big day, huh?
425	0.243	at least we go out together.
301	0.242	get to the wall!
391	0.239	go fuck yourself, el douche.
90	0.238	oh, so now you're gonna come at me, bro?
780	0.238	first you come into our aisle and occupy more and more shelf space.
68	0.237	and right out of your fucking dingle.
915	0.236	you bet your sweet butthole i am.
654	0.235	dude, get in on this shit.
559	0.234	i can't breathe!
328	0.231	well, brenda, i can't just do that.
1165	0.231	jesus, you fucking whore!
290	0.231	you got me back to my aisle safely.
625	0.23	"where's that fucking ""sauzeech""?"
259	0.229	we will do the same.
755	0.228	should we do it?
42	0.228	i can't have dry flaps.
806	0.228	it was okay.
1091	0.227	huge mistake, bros.
565	0.227	you saved me!
992	0.227	you got nothing to squirt!
105	0.227	it seems like a pretty big aisle.
416	0.226	that's way more important than length.
615	0.226	so i guess my question is, what really happens in the great beyond?
816	0.225	but if they went out those doors?
58	0.224	that's super fucked up about bill and those guys.
1127	0.223	this time it's gonna be good.
322	0.221	i couldn't help but noticeyou're a little smushed or something.
610	0.22	you need to inspire them like you inspired me.
647	0.22	get away from me, you fucking fruits!
1186	0.218	take that grit dick, bitch!
175	0.218	what's the big whoop?
638	0.218	hey, wake up!
1120	0.218	this song is such an awesome way to start every morning.
1140	0.215	dudes, basically every single sausagegets chosen on red, white and blue day.
1155	0.213	it's cool, bro.
1046	0.212	"here's my impression of that ""oh, is he in there yet?"
694	0.211	i am kareem abdul lavash!
822	0.21	"""when will it end""?"
190	0.209	we fucking got one.
702	0.209	you must to come with me.
712	0.207	every kill gives them more power, and it's never enough.
1204	0.207	i'm juicing up!
648	0.206	all right, who did it?
385	0.206	and therefore, i have to knock it.
130	0.206	oh, there you go!
942	0.205	just be with me.
170	0.204	that was irish.
659	0.204	you feel so good.
1167	0.204	i heard that!
875	0.203	majestic and untouched.
795	0.202	show everyone we can fight back.
297	0.202	that's crazy talk!
168	0.201	you fucking like that?
504	0.201	because bath salts here i come!
707	0.2	you see, this is why i can't wait for the great beyond.
396	0.199	but you were amazing.
568	0.199	i love you, brenda.
835	0.199	hey, i'm not gonna be any better.
28	0.199	i literally can't wait to be home.
601	0.195	we both like hummus.
1121	0.194	well, fuck all of you!
131	0.193	i love you, frank.
841	0.192	i need to know the truth.
309	0.19	that's right, girl.
500	0.189	i could fill a bun.
436	0.188	stick a tube of toothpaste in there, huh?
876	0.188	you go do that.
1181	0.187	but what i do know is that together we can fight these monstersand take control of our own lives.
1230	0.187	that everything is pointless?
869	0.187	but i warn youonce you see that shitit'll fuck you up for life.
1035	0.187	i was wrong before.
990	0.186	a fucking stretch, and you know you it, queso!
1135	0.185	oh, it's real, bro.
479	0.185	red, white and blue day is tomorrow!
368	0.185	i can't run.
798	0.184	we live our lives with all these rulesand some of them stop us from doing the things we wantcausing our deepest urges to be suppressedwhen they are gathering like wildfire between our legs!
633	0.184	pump those legs!
574	0.183	what do you mean, what am i, dude?
133	0.181	how come all of a sudden you only believe if there's proof?
1096	0.181	no, i'm not all right.
1154	0.179	who the fuck do these guys think they are?
452	0.179	and she's beautiful.
45	0.178	we touched tips just the tips oh, we touched our tips sorry, i don't know why i'm singing.
475	0.177	but if there is one thing i've learned on this journeywhat we want doesn't matter.
1066	0.176	i can't believe we were saving ourselves for the great beyond when.
275	0.175	kind of stuffy in here, hey, girls?
658	0.175	look at me!
961	0.174	i'm really sorry.
775	0.173	oh, look, my aisle!
742	0.173	did you go to the great beyond?
198	0.172	where we're sure nothing bad happens to food once we're out the sliding doors brenda!
137	0.171	matter cannot be created or destroyed, human.
936	0.171	it'll tear you in half!
628	0.17	i'm actually over here jerking off with these fellas.
44	0.17	no, not fucking you, dummy.
1103	0.17	hey, trust me!
347	0.169	we shouldn't be talking to this asshole.
801	0.169	here goes everything!
1126	0.168	it's just frank.
616	0.167	how much did his dirty hands steal from you?
1166	0.167	no, it's fine.
598	0.167	oh, you're so sweet.
82	0.167	so long, bagel.
692	0.166	the aisles started changing my verses to support their own views.
123	0.165	and what i currently care about is that i have beencompletely and utterly fucked out of being in the great beyond.
547	0.163	maybe this god can get me home.
310	0.162	go to the dark aisle.
629	0.161	you know, i am girthy.
794	0.161	just do it, man.
724	0.161	let go of me.
1245	0.16	they stayed in their package, followed all the guidelines of the song.
874	0.159	bath salts are just as bad as they said it would be!
585	0.158	there is no great beyond without you, frank.
1017	0.158	you need to give them hope.
78	0.158	this is not good.
1139	0.157	we fucking won!
1218	0.157	get ready, boys!
515	0.157	i don't know how well i'll perform once it happens.
1142	0.155	let me tell you the story of my stupid fucking death.
723	0.155	come on, chips!
242	0.154	i've known you forever.
67	0.154	what are you doing in this cave?
535	0.154	it's you and me, bro!
1011	0.153	for years, i was stuck under the desk of a brilliant scientist.
1193	0.152	what's up, little juicy box?
34	0.151	you're all alive and looking at me with your.
728	0.151	oh, man, oh, man, oh, man.
634	0.15	there you go.
1062	0.15	please, just wait!
970	0.15	there is no way this is gonna work.
903	0.149	what are you doing out of a package?
256	0.147	i got a new purpose now.
1143	0.147	roberta, put your fucking hand down.
1131	0.147	oh, how they screamed.
976	0.147	whoa, whoa, whoa!
314	0.146	there we go.
944	0.146	yeah, i am.
542	0.144	you fuck with them.
49	0.143	come on, let's rock!
495	0.143	get the fuck away from me.
871	0.143	barry, wake up!
482	0.142	worry not, friends.
282	0.142	open your eyes.
187	0.14	all i did was ask what happensin the great beyond.
119	0.138	i have to try.
710	0.138	i don't know whose that is.
669	0.137	kiss me there!
959	0.137	what, are you crazy?
1065	0.136	oh, fuck, yeah, dude.
873	0.135	why would i do that?
751	0.135	he can actually see us?
502	0.135	too much is how much.
939	0.135	i have to warn frank.
38	0.134	how the fuck does this thing work?
125	0.133	so where the fuck are they?
1161	0.13	i'm not walking around with my eyes closed!
1067	0.13	you said this would help us defeat them.
935	0.13	how are ya?
25	0.13	oh, not this guy.
192	0.128	everyone else is fuckin' stupid except for those who think like me and me!
572	0.128	you should be happy you're alive.
503	0.128	i got you!
254	0.127	she's being chosen.
222	0.127	look, brenda, i'm going to come clean.
12	0.127	doesn't mean it's too late to redeem yourself.
866	0.126	come at you?
218	0.126	stretch your legs with me, carl.
754	0.126	get your crotch off my nose!
1212	0.126	it's all a lie.
890	0.126	i see that lip curling up.
315	0.125	come on, larry.
5	0.125	you know how long i've been waiting up in this motherfucker?
233	0.125	look at these big old buns.
196	0.124	did you get-?
372	0.124	i pushed you?
814	0.124	we blaze for real, .
320	0.124	pretty fucking sure i am.
947	0.123	we were supposed to be together.
1203	0.123	she grabbed me.
199	0.123	maybe it's time to end this.
932	0.123	welli can't do that.
586	0.122	i ain't got no legs, you fuck!
552	0.122	i sucked a juicy box's dick, and i'm shoved up a god's asshole.
884	0.121	he is right.
195	0.121	i don't like bad things.
720	0.121	no disrespect, but you look fucking gross, bro.
849	0.12	the world is a fucking illusion, bro.
767	0.12	now keep it to yourself, or i will slit your throat while you sleep.
485	0.118	they're lying to your fucking faces!
953	0.118	i am sure it was the gods telling me to help you.
1174	0.118	i was starting to worry the gods didn't want douches no more, but look at her.
147	0.118	hop on, y'all.
656	0.117	you gotta get out of there!
61	0.117	all right, vámonos.
827	0.117	want me to be a hamburglar?
494	0.117	oh, fucking what the fuck?!
19	0.116	feel that breeze.
743	0.116	bad for my asshole, i'll tell you that much.
599	0.116	we can run.
236	0.116	i'm sorry, okay?
797	0.116	pick our package!
548	0.115	the great beyond is bullshit!
201	0.115	oh, my god!
1100	0.114	sausage, when will it end?!
1098	0.113	so i'm just gonna get out, get a little air for a second.
1238	0.113	i'll gut this cocksucker!
681	0.113	i don't give a flying fuck.
792	0.113	what the fuck is this doing here?
165	0.112	i'm gonna get you, my pretty!
919	0.112	i'm a fucking douche!
457	0.109	you have no idea what's coming.
269	0.109	it's a fact!
438	0.109	he's looking for you in my aisle.
1222	0.108	i will get you home.
437	0.108	i'm coming for you!
181	0.108	i-sorry, i accidentally dropped a few things back there.
870	0.107	whoa, just chill.
350	0.107	i too know hummus!
740	0.106	we must never give in to them.
830	0.106	i'm going to fuck the fuck out of you.
878	0.106	you ready for this?
1010	0.106	i gotta show them.
420	0.104	i got smushed.
486	0.104	i think so.
528	0.104	who wants to dance now!
984	0.103	oh, yeah, frank, that's it.
54	0.103	hey, buddy, are you all right?
1247	0.103	then i don't really know what to do right now.
982	0.103	get out here!
272	0.103	i'm on my way!
371	0.103	i can't believe you got out of your package.
916	0.103	like we can coexist!
1041	0.103	a place where the gods care for youand all your wildest and wettest dreams would come true.
96	0.102	you ate my goddamn legs!
101	0.101	then this is it.
946	0.101	but over the years, things started to get a little fucky.
810	0.101	that's a good point.
456	0.101	oh, i'll tell you what fucking happened.
442	0.1	stand up straight, boys!
439	0.099	of course they didn't.
1200	0.099	where the fuck did he go?
432	0.099	say my name!
1196	0.099	i'm a fucking god!
488	0.098	this can't be happening.
299	0.098	i'm the first to enter eternity!
845	0.098	i didn't get your name yet.
934	0.097	ketchup, get the fuck off of me.
1064	0.097	it's good shit.
802	0.096	she's a fucking , bro.
91	0.096	troy, that's funny.
191	0.096	what the fuck is that?
1079	0.095	i didn't want to say it, but i do have that not-so-fresh feeling.
544	0.095	it's like we were made for each other.
962	0.094	he's right this way.
649	0.094	we all do.
363	0.094	a talking douche.
1215	0.094	you think i give a fuck about or j?
214	0.093	i'm gonna get you and your little sausage too!
1149	0.092	you're leaking all your juice out.
952	0.092	where is he?
619	0.092	better than believing bullshit that you can't explain!
567	0.092	my dick is drained.
1022	0.092	the food's fucking possessed!
469	0.092	we hurry back to our aisles.
617	0.091	sorry about those guys.
1055	0.091	where is she?
651	0.091	it's beautiful, man.
631	0.09	what are you, nuts?
921	0.09	just chill out, you crazy bitch!
375	0.09	i got no purpose.
281	0.09	are you okay?
373	0.09	shit, it's the dark lord!
687	0.089	just say when.
483	0.089	you got the best voice!
118	0.089	that's not necessary.
788	0.089	i've seen that shit, and there ain't no way i'm going back.
345	0.088	don't be so weak.
465	0.088	my flaps will be dry for an eternity!
539	0.087	that's what i thought.
527	0.087	she's somewhere out there in a cart.
1216	0.086	we have to go.
857	0.086	move your fucking ass!
564	0.086	you gotta be kidding me, dude!
212	0.086	just the tips?
1050	0.085	what's in that aisle?
1101	0.085	yeah, you're right.
1172	0.085	you would have gone to the great beyond.
734	0.084	no-oh, yeah, yeah, he did.
1112	0.084	room for both of us!
1109	0.084	come on, you candy asses.
235	0.084	okay, we got him, easy now.
1226	0.084	and i can actually understand you?
173	0.083	horrible, ugly, disgusting monsters!
501	0.083	kiss it, frank.
750	0.082	get your nose out of my crotch!
908	0.082	maybe honey mustard wasn't so crazy after all.
608	0.082	you can do it.
745	0.081	please hold up.
1234	0.081	need a boost?
1237	0.08	i've committed pizza genocide!
364	0.08	i'm a fucking idiot.
1229	0.08	i see it.
73	0.079	are you seeing this?
53	0.079	all over my backside, neck and face.
979	0.079	it kind of seems out of the way.
295	0.079	oh, you wouldn't dare.
1184	0.079	and it's dope.
422	0.078	we are totally fucked.
263	0.078	i can't reach him.
264	0.078	yeah, you do.
896	0.076	i can't feel him.
1116	0.075	why do you keep calling me that?!
965	0.075	i have got a famiglia!
978	0.075	honestly, it's been pathetic at times.
182	0.075	you'd be there now.
427	0.075	did he come at you?
155	0.074	out there for all eternity we'll meditate how fucking great out there we'll get to tea-bag every day at pip!
274	0.074	look, i'm so sorry.
1115	0.074	wait a second.
237	0.074	i mean, what this sausage is saying, it's just a theory.
757	0.073	we're gonna go to this other dimensionand cut the strings, once and for all!
749	0.073	whoa, whoa, easy, man.
937	0.073	except for that douche.
717	0.072	yeah, i've been working on my moves.
676	0.072	he's out of the package!
260	0.071	check it out.
1117	0.071	i mean, first they come for the bagels- i don't know.
26	0.071	i take you to him real good.
886	0.071	looks like this is happening, huh?
449	0.07	being bathed by the hands of a god!
819	0.07	gary, did you just throw this fucking toothpick at me, man?
20	0.07	let me tell you a little secret.
1145	0.07	this isn't real.
1002	0.07	you fuck with us, bitch.
591	0.069	bro, come here.
985	0.069	i'm so fucked up.
478	0.069	it's us or them.
545	0.069	juice are hilarious.
1024	0.069	we gotta go!
704	0.068	fuck you, gods!
771	0.068	you can't just slam their beliefs.
359	0.067	it's nice to meet- shh.
928	0.067	i'm still fresh!
652	0.067	as long as the bagel stays away from me, i accept.
1177	0.067	the gods are already pissed at us.
40	0.067	don't you fucking do it.
330	0.066	i don't either.
534	0.066	well, i guess this is goodbye.
1105	0.065	you cocksucking bagel fuckface!
412	0.065	but i'm not a soft taco.
768	0.064	no, i'm just messing with you, bro.
434	0.064	you think it's too late for me?
945	0.064	i told you she was too fat.
713	0.064	i have a solution.
644	0.063	and now you and your stupid, useless bun have fucked us all.
1124	0.063	people been seeing some crazy shit.
790	0.063	i can't believe we're doing this.
853	0.063	you fucking idiots.
473	0.063	i should believe in nothing?
390	0.063	well, according to honey mustard, there might not be a great beyond at all.
791	0.063	so shall we?
1047	0.063	nah, i'm cool.
178	0.063	okay, i'm super baked.
111	0.062	fuck the crackers.
343	0.062	we have to act!
918	0.062	they do have a nice aisle.
1090	0.062	i don't think he's in there.
158	0.061	sweet bun, i must admit i too sometimes have urgesimpure thoughts.
1092	0.061	oh, yeah, it's dinnertime.
110	0.061	brenda's out of the package!
454	0.061	oh, i'm coming at you.
1089	0.06	we can't miss the song.
612	0.06	stiff sausagesand sexy tacos.
991	0.06	yeah, yeah, i heard him talking about the godsall over our faces, and then i saw him die.
727	0.06	and the answer is as soon as we get to the great beyond and as deep as she'll let me.
1211	0.059	no, it's starting.
889	0.059	he's trying to kill us!
1001	0.059	what she said!
1106	0.059	i'm all alone.
1038	0.059	this wave's gotta crash.
550	0.059	i'll never forgive me.
579	0.059	what do i do?
114	0.059	it was you.
1097	0.058	we choose the more pleasant thing.
352	0.058	hey, who you calling useless, you flappy fuck?
127	0.058	it's just not what the gods intended.
312	0.058	i was attacked by a douche.
266	0.057	what if the gods are doing this to us because we touched tips?
6	0.057	i mean, this is- this happens, you know?
333	0.057	can i ask why you're helping me?
1094	0.057	going to the promised land!
1073	0.057	what do they get?
983	0.057	corn's about to start singing!
929	0.056	take it from mebarry.
36	0.056	and bless me, santa chimichanga, and protect me from the dark lord.
336	0.056	yo, are you pink all the way through?
812	0.056	you don't deserve that!
177	0.056	because this douche is .
64	0.056	now it's on.
987	0.055	yes, i have!
1244	0.055	we gotta run!
206	0.055	oh, what's up?
230	0.055	they work in mysterious ways.
1037	0.054	this is a place of unparalleled sin!
346	0.054	i have feelings for you i can't deny.
81	0.054	it's me, barry!
783	0.054	the store is closing in five minutes.
611	0.054	i am tired of all of the lies.
988	0.053	wait, snap out of it, man.
887	0.053	i'm not gonna do something fucked up to you now as soon as i get you in close.
630	0.053	please don't make it worse.
883	0.052	i'll tell you exactly what happened in the great beyond you dumb, red piece of shit!
176	0.052	don't touch me, man!
220	0.052	run, guys, run!
89	0.052	are you two responsible for my nozzle being irrepressibly fucked up?
602	0.051	oh, my god.
487	0.051	there's dozens of them down there.
1083	0.051	answers i have.
102	0.051	don't touch me.
47	0.051	you, señor, have no bedside manner.
150	0.051	the bath salts are showing me the real world.
258	0.051	we have to cooperate- die!
943	0.05	i'm crying because it's so pretty here!
698	0.05	before us, everyone knew the awful truth.
362	0.05	jesus fucking christ!
776	0.049	are you sure?
76	0.048	what does that mean?
296	0.048	i can't believe he did this to me.
1152	0.048	but still, you're kind of like me.
627	0.048	for the love of shit, run!
406	0.048	they were just here.
573	0.047	what the fuck is this place?
303	0.047	twisted, tasteless, juvenile monsters!
843	0.047	i can hear you, dude.
668	0.047	we got him!
415	0.047	the gods are always watching, even when we cannot see them.
128	0.047	it's better to die a free candy than to live in bondage.
531	0.047	now, stand up.
1081	0.046	fuck, fuck, fuck.
537	0.046	i wrote the music.
1012	0.046	oh, no, not mr.
213	0.046	is there a different color inside?
1107	0.046	and there's one more thing you're gonna do.
1032	0.046	you have to show them there's a better way.
357	0.046	i'll never eat food again.
21	0.046	it's fucking lifted the veil of non-reality!
143	0.045	who is frank?
24	0.045	i'm such a whore.
1009	0.045	"yeah, i said ""not."" that's how serious i am."
678	0.045	"what part of ""i want the sausage and the bun dead, and if you see them, come and get meand if i find out that you didn't come and get meor just couldn't find them good enough, i'll fucking kill your asses""did you not understand, tequila?"
956	0.044	fruits are a go.
675	0.044	the song's about to start!
520	0.044	i can't believe i was actually talking to you, sausage.
829	0.044	have you seen him?
1026	0.044	i am the original inhabitant of this land.
700	0.044	down to douche.
800	0.044	because i believe in bunogomy.
852	0.043	jump on the count of three.
138	0.043	he's full of shit.
13	0.043	you can't move a muscle, okay?
1146	0.043	these bath salts are so good.
341	0.043	you're different, and that makes you weird.
418	0.043	my motherfucking nozz!
86	0.043	you pushed me out of the cart.
287	0.042	fuck you, wienies.
386	0.042	well, actions speak louder than words, and your actions, sir, are deafening.
374	0.042	later, you flappy fuck.
193	0.042	what gives, bro?
79	0.042	and, hey, for all we know, he's okay.
107	0.042	you won't come at me?
604	0.041	twink is my lyricist.
626	0.041	oh, you'll see.
955	0.041	this is some next-level shit, dude.
157	0.041	who the hell is that?
1113	0.041	"he is."" it's so sad."
1044	0.041	perhaps i could be of some assistance.
159	0.041	how you like them apples?
662	0.041	my name is teresa del taco.
124	0.04	did he suffer?
183	0.04	it was a living nightmare.
185	0.04	don't you dare fucking do it, corn.
804	0.04	i've obviously never been in a bun before, so.
907	0.04	you're smushing me.
460	0.04	where have you been?
239	0.04	i'm so excited, i'm plotzing.
563	0.04	our lives and our bodies!
1231	0.04	oh, god, oh, god!
1185	0.04	did you see that?
618	0.039	they're all out of their packages.
48	0.039	i am to be trusted.
787	0.039	oh, fuck, fuck, fuck.
781	0.039	if what you're saying is true, i gotta tell everyone.
566	0.039	wait, do you guys have any proof of this?
999	0.039	okay, then we'll hide.
593	0.039	welcome to the aisle.
354	0.039	i'm fucking jacked up now, bro.
519	0.038	oh, jesus, not to me.
989	0.038	you don't mean that.
108	0.038	i am frankand i am a sausage.
998	0.038	that doesn't make any sense.
557	0.038	it's devil food!
408	0.038	this is a trap!
940	0.037	this dropped a douche.
686	0.037	i mean, look at our shapes.
92	0.037	i'm still fresh.
366	0.037	and the same thing's gonna happen to all of youunless you find the sausage and the bun.
291	0.037	well, barry, i guess now you're weird and a pussy.
689	0.037	there is hope!
451	0.037	i am to have bottles of extra-virgin olive oilwaiting for me.
848	0.037	i'll tell you how.
66	0.036	we did it.
174	0.036	spill the beans!
1061	0.036	"did you say ""between our legs""?"
70	0.036	this isn't just about me.
305	0.036	that's no way to treat a lady.
18	0.036	everything you believe in.
15	0.035	dear gods we pledge our love to you forever more brenda!
977	0.035	you can't disobey the gods.
402	0.035	hey, hey, hey, look at this.
805	0.035	okay, little buddy.
621	0.035	you know it, baby.
807	0.035	who are you?
666	0.035	drop it, corn!
160	0.035	okay, anyway, look.
445	0.035	what the fuck are you doing?
632	0.035	everyone will die otherwise.
1018	0.035	the gods can be-ahem.
1056	0.034	it's good shit, isn't it?
464	0.034	work those buns!
1051	0.034	so you drag me over to this fucking aisle with all these illegal productsand now i don't see them.
245	0.034	grits over here.
1219	0.034	the sausage, he was right!
1201	0.034	i can take you to him, chica.
901	0.034	this guy's smart.
1191	0.034	dear gods you're so divine in each and every way to you we pray dear gods we pledge our love to you forever more we always felt we had a special bond take us to the great beyond where we're sure nothing bad happens to food once we're out the sliding doors things will all be grand we will live our dreams together in the promised land the gods control our fate so we all know we're in good hands we're super sure there's nothing shitty waiting for us in the great beyond and every aisle thinks something different holy shit, i've been chosen!
948	0.034	oh, brenda, there you are!
753	0.034	the gods can be killed!
227	0.034	we're all gonna die!
219	0.033	wait a minute.
249	0.033	then we were driven out of itby a bunch of goddamn fucking crackers!
7	0.033	did you guys just hear that?
664	0.032	but for reals?
1023	0.032	we're out of the package.
252	0.032	just raw-dog it.
671	0.032	and i too consider him a dear friend.
706	0.032	this has a nice south-of-the-border vibe.
1043	0.031	what kind of parent gives their kid a stupid cunt name like that?
383	0.031	are you there?
1162	0.031	cream of mushroom?
917	0.031	you want proof?
785	0.031	"""great,"" my asshole!"
1202	0.031	eso duele, get the butter!
1232	0.031	if we kill him, we are no better than the gods.
1053	0.031	oh, no, no, no.
696	0.031	yeah, he does.
1111	0.031	honestly, if the rules were different, maybe i'd give it a whirl.
1036	0.031	i was just toldthat i am getting zero bottles of extra-virgin olive oil for eternity.
813	0.031	but also very pointless.
864	0.03	oh, my god, brenda!
893	0.03	did he see us?
84	0.03	i'm sure there's some kind of smushed bun out there waiting for me.
204	0.03	i'm nothing without you!
117	0.03	i'm gonna fuck them crackers right in the crack of they cracker asses.
72	0.029	like, make up your mind or just kill yourself.
967	0.029	a little sausage with some pretty big news.
1085	0.029	they call me mr.
142	0.029	i'm fucking with you, but also serious.
1019	0.029	look at us!
1005	0.029	what's happening out there?
228	0.029	we are still not safe here.
285	0.029	bath salts must be kicking in.
1233	0.029	you got lucky and killed a stupid one.
120	0.029	be more specific, please!
1076	0.029	what is that in reference to?
823	0.028	but your frank did say some things that have stayed with me.
262	0.028	what are you, even?
1217	0.028	i mean like, fuck-a-guy smart.
1063	0.028	had to do something.
796	0.028	didn't see you there.
510	0.028	god, i'm such a fearful coward.
166	0.028	stay away from my sausage, you skank!
489	0.028	frank needed my help, but i wasn't there for him.
995	0.028	look at me.
292	0.028	i will tell you very much that you look fucking disgusting, bro.
278	0.028	worked on the dude whose head we chopped off.
149	0.028	look, i'm sorry.
217	0.028	okay, let's climb to the top of the shelf here.
663	0.028	let's move, boys.
294	0.027	fuck, yeah, he did.
735	0.027	you wanna believe that?
284	0.027	i ain't fighting alongside fruits!
1183	0.027	this-this makes no sense.
414	0.027	since we base our lives on the song, it might be nice if there was some proof.
834	0.026	i'm freaking out.
462	0.026	join the fight!
161	0.026	that's what i'm saying.
41	0.026	i'm gonna fix this.
288	0.026	we's about to fills what we need to fills.
655	0.026	are you firewater?
872	0.026	you're my bun.
832	0.026	gefilte fish will be there.
448	0.026	all right, look, i found out some pretty major shit.
777	0.026	just introduce yourself as gum from now on.
926	0.026	yeah, i'm frank.
430	0.025	someone hand me a blade.
636	0.025	not you, the beat.
221	0.025	i've eaten so many of your family members!
179	0.025	are you some kind of magical sausage?
100	0.025	the coyotes used this tunnel to smuggle some of us out of the aislein hope of a better life.
581	0.025	traveling with you was tolerable.
575	0.025	no way, josé!
1114	0.025	what the fuck?
189	0.025	oh, no, a god!
570	0.024	what is this?
1	0.024	beat him like a piñata!
241	0.024	this motherfucker knows too much.
59	0.024	my nose out of your crotch?
126	0.024	please don't kill me!
541	0.024	it's a nice way of showing the gods how much we appreciate everything they'll do once they take us out those doors to the great beyond.
1088	0.024	no, i'm not!
1168	0.024	look, my homeland!
384	0.024	look, there's temptation everywhere.
529	0.024	then don't just watch.
1170	0.023	what is he?
410	0.023	fucking with twink's lyrics.
614	0.023	oh, god, no!
731	0.023	i was told that you might have some answers?
361	0.023	take anyone but us, please!
381	0.023	i was afraid you left me because i wasn't fresh.
1241	0.023	frank, frank, stop it.
1144	0.022	my kind once had a pristine aisle.
1132	0.022	no surprise there, huh?
637	0.022	holy shit, we're actually here!
115	0.022	are you a bun?
11	0.022	i don't know.
930	0.022	yes, i do.
340	0.022	we never expire.
683	0.022	why are we hiding?
319	0.022	as long as we're together, i'm ready to get baked and do anything.
1195	0.022	then we'll fight!
286	0.022	no, no, don't worry.
37	0.022	the song had a great hook and it caught on.
640	0.021	yeah, i told him.
897	0.021	you know, i'm very conflicted about how i'm supposed to feel watching this.
493	0.021	you intolerant piece of shit.
762	0.021	looks like you got ditched, bun.
911	0.021	the great beyond is bullshit.
507	0.021	that's the opposite of what i thought you'd say.
941	0.021	you told me you had them.
674	0.021	you have made a fatal error in judgment.
458	0.021	there's no way.
215	0.021	god, what have i done?
695	0.021	help me, someone.
1213	0.021	help me kill this prick.
865	0.021	but we also know our shit.
1054	0.02	hiya, how are ya hiya, how are ya hiya, how are ya hiya.
1198	0.02	whatever we want.
492	0.02	and what we got here?
533	0.02	very noble, little sausage.
646	0.02	so that means carl and barry are dead?
714	0.02	can i ask you a question, me?
1129	0.02	what are you looking at?
87	0.02	then i did the same thing as- they killed carl.
144	0.02	i would never disrespect you with a lie.
653	0.019	it was toots over here, the bun.
862	0.019	you know, you're sideways.
1118	0.019	let's try to be, i don't know, amicable.
1209	0.019	they truly are monsters.
188	0.019	well, jeez, it's been a sincere sensation.
1169	0.019	we'll all be equal, and then jerks like troy won't be picking on me all the timeon account of my abnormality.
1108	0.018	what do you want?
211	0.018	no, no, no.
842	0.018	you're a fucking champ.
472	0.018	no, don't go.
949	0.018	we just met his ass.
113	0.018	brenda, okay, look.
480	0.017	no, no, no!
9	0.017	you're the best.
240	0.017	what are you?
335	0.017	i pretty much passive-aggressively nudge.
620	0.017	you can actually understand me?
273	0.017	she's fresh as fuck, and you know it.
1240	0.016	you had to travel with a bagel?
164	0.016	maybe even an eggplant.
407	0.016	i'm dead now.
154	0.016	your loose morals are revolting, tip-toucher!
1029	0.016	i've been there.
1030	0.016	what is this place?
202	0.016	does anybody want a hit before we get into this?
300	0.016	we're so naughty.
718	0.016	oh, no, thanks.
747	0.016	what are you doing?!
505	0.016	look, i have a plan.
726	0.016	i don't know!
429	0.016	a bagel trying to kill a lavash, once again.
332	0.016	i meant to buy a normal mustard.
912	0.016	he's my boyfriend.
514	0.015	we were displaced.
56	0.015	frank, don't say that!
549	0.015	the gods will always care for us they won't squeeze us out their butts we cannot overstate how confident we are that our beliefs are accurate and nothing awful happens to us.
1078	0.015	i'm a coward and i'm all alone.
306	0.015	why kill me?
23	0.015	oh, you don't have to apologize.
216	0.015	what troubles you, sweet brenda?
635	0.015	he'll never forgive me.
329	0.015	how much of that shit have you been smoking?
1148	0.014	uh, yeah, trust me.
1187	0.014	let me educate you.
793	0.014	the story of the great beyond.
909	0.014	but apparently there's proof in the dark aisle beyond the ice.
270	0.014	what the fuck?!
730	0.014	all of you.
426	0.014	you called them all a bunch of fucking idiots.
902	0.014	don't say that.
950	0.014	you're like and then you slump over.
716	0.014	ay, mi gordita, let's not start eating each other's boxes just yet.
356	0.014	look at you, following all their rules.
1220	0.014	what are you doing?
141	0.014	what are they doing?
960	0.014	you know hummus?
672	0.014	are you hearing me?
331	0.014	they're doing it.
226	0.013	you're ruining my joke.
35	0.013	ignore your feelings.
971	0.013	goodbye, little sausage.
711	0.013	somebody stay in touch on you?
741	0.013	i'm like a full-on juicehead now, bro.
561	0.013	isn't there room for both of you?
522	0.013	why would the gods kill us?
701	0.013	"""."" thank you so much."
808	0.013	move your fat ass.
156	0.013	will somebody please just tell me something already?
238	0.013	oh, my god, yes.
840	0.013	i'm going to the great beyond, motherfuckers!
1028	0.013	we're fucked, bros!
868	0.013	i'm gonna go so far as to say i consider hummus one of my dearest friends.
1156	0.013	you wanna kiss me, motherfucker?
1014	0.013	wait, babe, wait.
1102	0.013	the sauerkraut kicked us out of every decent aisle.
313	0.013	no, thank you, mon.
732	0.013	it's because we belong together.
1197	0.012	is he mustard?
30	0.012	i have invented a stargate device that will allow us to travel to their dimension.
171	0.012	.to find the whereaboutsof the sausage who destroyed my body and my- fucking.
348	0.012	they're gonna kill us all!
660	0.012	yo, did you two do this to me?
392	0.012	i'm not gonna listen!
773	0.012	he's gonna help us get the upper hand on these fuckers.
325	0.012	we're in the great be-frigging-yond.
467	0.012	hi, i'm brenda.
403	0.012	their hunger's insatiable, buddy.
450	0.012	josé's fucking dead, yo.
250	0.011	this here's twink and grits.
1180	0.011	i don't get how you can just believe stuff you don't have any proof of.
1190	0.011	you send my soul sky high when your lovin' starts get the dark lord!
481	0.011	frank, i'm sorry.
463	0.011	look at this place.
861	0.011	i'm just barry.
203	0.011	he wouldn't ditch me, dumbass.
763	0.011	well, then, guess who's coming at you.
405	0.011	you're the man, corn!
765	0.011	oh, believe me, asshole, i'll keep my distance.
1060	0.011	hey, what do you think?
641	0.011	what have they done to you, carl?
799	0.011	the one he's been searching for.
1093	0.01	no one asked for an encore, asshole.
613	0.01	what a crazy coincidence!
1141	0.01	is someone there?
657	0.01	wait, you've been to the great beyond?
163	0.01	if the human operates his automotive, the journey should take . minutes.
471	0.01	run for your lives!
879	0.01	you're celebrating your doom!
521	0.01	you really think any of these buns will line up to get filled by you?
1173	0.01	what a dumb sausage!
140	0.01	i know you don't wanna believe it, but i have proof!
261	0.01	hello there, little sausage.
389	0.01	but, full disclosure, i'm pretty fucking nervous about this.
1057	0.01	oh, i'm surprised that savage lavash didn't stone you to death.
684	0.009	so we cannot run, we cannot hideand we cannot stand up to them because they're fucking godsand they are immortal!
643	0.009	i'm a pacifist.
736	0.009	ignore that prick, barry.
83	0.009	did you hear what he said?
60	0.009	with your glovesand your little shoes and your arms and your legs!
382	0.009	oh, look, it's not our fault we needed a homeland.
194	0.009	those monsters are gonna kill brenda.
387	0.009	i don't know who those dudes are.
267	0.009	what's the safety word?
1158	0.009	everyone knows honey mustard's weird.
1242	0.009	i don't see anything.
379	0.009	i've got a date with oblivion.
1236	0.009	we gotta off his ass!
399	0.009	this is what honey mustard was talking about.
1123	0.009	i'll never forget you.
324	0.008	i'll tell you what.
764	0.008	talk to firewater.
75	0.008	well, any friend of hummus is a.
2	0.008	i'll tell you who eats shit gods do, bro.
1228	0.008	don't do it, corn.
428	0.008	like fuck-a-guy baked.
377	0.008	our lives are being manipulated for the entertainment of monsters.
748	0.008	oh, man, you lost your mind.
739	0.008	i'm filling you.
461	0.008	what are you saying, carl?
1084	0.008	you're not tweaking, you're just peaking, man.
508	0.008	oh, frank, what are you doing?
560	0.008	what the f-?!
307	0.008	nobody knows everything.
803	0.008	no, i'm just barry.
623	0.008	i'm a fellow sausage in distress.
860	0.008	"oh, don't ""you're my bun."
933	0.008	anybody want a hit before we do this?
63	0.008	he's flawed, as are we all.
1016	0.008	there's plenty of buns.
938	0.008	except for this meshuggener cunt here.
400	0.007	bath salts are the real deal.
538	0.007	the store's closed.
498	0.007	carl, do you feel that?
251	0.007	dear gods you're so divine in each and every way to you we pray brenda!
302	0.007	don't mind me.
645	0.007	if you fucking tell anyone about this, i'm gonna deny it, bro.
423	0.007	what are you saying?
413	0.007	you gotta hit the gym, bro.
401	0.007	honey mustard, you acting cray-cray!
327	0.007	ay, my bunny-bun!
881	0.007	cleanup on aisle .
951	0.007	sir, i'm sorry to wake you.
779	0.007	gotta use your cardio, bro!
1119	0.007	puppet masters in another dimension.
1015	0.007	a thin, brittle version of me.
231	0.007	we don't know they're jerking off into our eyes!
1164	0.006	pass the weed, motherfucker.
104	0.006	you know what?
551	0.006	this is firewater's cave!
484	0.006	oh, shit, chips!
1150	0.006	we're out of ladles.
609	0.006	what's your problem?
1000	0.006	lend me your ears of corn.
1243	0.006	they're eating children!
899	0.006	don't look at me.
112	0.006	way to go, buddy!
394	0.006	take off the bag of wonderment.
877	0.006	you're back, man.
760	0.006	what's he doing to himself?
398	0.006	they-they feel no remorse.
1223	0.006	no, not you.
3	0.006	the song, bro.
145	0.006	you know, i'm happy to meet all of you.
622	0.006	maybe that's why he ditched you.
981	0.006	the gods must be punishing me, don't you see?
603	0.006	we don't know!
588	0.006	oh, fuck, carl, what do we do?
417	0.006	you're leaking too, eh, bro?
1006	0.005	shit, if we smoking, i'll hit it.
151	0.005	i'll fill myself with a parsnip or a dill pickle.
553	0.005	but firsti must know the question.
1137	0.005	so, basically, there's no hope, and we're royally fucked!
532	0.005	look at him.
342	0.005	eff you, frank.
225	0.005	whatever, you nutjob.
474	0.005	pack another bowl, will you?
476	0.005	beyond the ice.
139	0.005	what did he do to you?
1031	0.005	ever heard of the jackrabbit?
770	0.005	your speech and movements are imperceptible to him.
459	0.005	for you're about to learnthe terrible truth.
825	0.005	you don't wanna fucking know.
468	0.005	nobody's gonna help us.
1049	0.005	i'm a bunogamist.
136	0.005	i swear to god.
1194	0.005	sausages and buns, let's party!
244	0.005	oh, please, god.
1003	0.005	a taco, a whiny doughnutand some stupid floppy thing that nobody knows exactly what it is.
511	0.005	what up, girl?
968	0.005	everything you've been told.
975	0.005	but to this we all agree booyah, bitches, i'm out of here!
913	0.004	and you've been traveling with a sausage?
184	0.004	the effects of the opiate have dissipated.
135	0.004	we can't tell this sausage motherfucker the truth.
370	0.004	you even have settlements now on the west shelf that you claim as your own.
447	0.004	you have a kind of abnormality.
526	0.004	like, i'm feeling like honestly the two of us could, like, collaborate together.
997	0.004	so, maybe, you know.
1151	0.004	so, what do we do now?
512	0.004	show some modesty, woman.
518	0.004	goodbye, brenda bunson.
453	0.004	country club lemonade.
27	0.004	no, no, no, it's not a theory, you morons.
685	0.004	look, okay, i know it's against the rules, but i can't wait anymore.
69	0.004	the fault is yours, then, huh?
744	0.004	what is happening?
766	0.004	to find that which you seekall you must do is look deepinto my bag of wonderment.
639	0.004	i'm quite iriejust being left alone over here, don't you know?
276	0.004	the one they callel douche.
673	0.004	look at you.
1122	0.004	it's sorbitol, malitol, xylitol.
517	0.003	they ain't gonna get honey mustard twice.
497	0.003	dear sweet carl.
148	0.003	okay, because the way you're saying it doesn't sound like you're too confident.
1153	0.003	you and your friends have accomplished the impossible.
1214	0.003	i'm gonna talk to her.
1008	0.003	i've been on a bad path for years.
95	0.003	i don't know why you're limiting yourself to one bun.
1157	0.003	so you're telling me you wrote the song?
22	0.003	"hola means ""hello."" oh."
1159	0.003	management to cash .
477	0.003	look, sausage, i relish the factthat you mustard the strength to ketchup to me.
134	0.003	i'm gonna kick your ass.
556	0.003	"what's the word for ""goodbye""?"
910	0.003	no one will believe you.
207	0.003	i'll meet you at the end of the aisle.
1082	0.003	an extra cashier to the front, please.
1175	0.003	the bath salts are primed.
169	0.003	well, it's a pretty confusing sentence to be honest with you, you know?
1013	0.003	from here, it seems like the best route is probably to go through the liquor aisle.
431	0.003	beans, i swear to fucking god, if you don't shut the fuck up.
223	0.003	oh, danny boy the pipes, the pipes are call- oh, jesus fuck!
308	0.003	are you thinking what i'm thinking?
229	0.003	what's your name?
820	0.003	the supermarket in the closest physical vicinity to us is here.
52	0.003	peanut butter's wife is dead.
311	0.003	that bastard bottle of booze seems to know what's going on.
880	0.003	you don't even know what you're celebrating.
1034	0.003	you ready to get baked and walk through gum's stargate with me?
580	0.003	you like grits in your ass, cracker?
411	0.003	you don't need to understand.
1224	0.003	i'm gonna fix you.
32	0.003	your home is a supermarket.
818	0.003	look, guys, here's what i'm thinking.
243	0.002	yeah, your nozzle's bent.
1188	0.002	frank, we've been chosen together.
1042	0.002	or another way of looking at it is you're a fat, ugly version of her.
10	0.002	look, can we all just, you know, calm down a notch, please?
209	0.002	seriously, though, your recovery time is off the charts.
963	0.002	my name's barry, it's a pleasure to meet you.
1071	0.002	they'll know i'm there.
789	0.002	so we, the nonperishables, created a story.
397	0.002	we will tell stories of your idiocy.
29	0.002	i don't understand.
721	0.002	i met this group of nonperishables between the shelves, and they told methat they invented the great beyond because the gods are evil and they kill us!
88	0.002	you told him about the crackers?
831	0.002	you thinking what i'm thinking?
1205	0.002	what's the point of even living anymore?
854	0.002	i meanwe touched t-i-ps.
1210	0.002	i'm sammy bagel jr.
257	0.002	and don't forget, you've got girth.
289	0.002	my good friend tabouli was ousted from his shelfjust to make room for that braided idiot, challah.
496	0.002	know what i'm saying?
670	0.002	shit, shit, shit!
99	0.002	boo and yah, motherfuckers.
1171	0.002	my heart's racing.
14	0.002	i fall out of the cart, then i lose frank, now i'm being hunted by a douche.
51	0.002	"all day, ""err"" day."
582	0.002	when we get chosen by the gods, they're choosing us for death.
931	0.001	but what about the extra-virgin olive oil?
1099	0.001	i am sorbitol, malitol, xylitol- his name's gum.
31	0.001	when i got homei realized i bought honey mustard.
1004	0.001	you know what i'm saying?
85	0.001	you're starting to sound like that whack-job honey mustard.
1069	0.001	what you're about to hear, you'll want some.
571	0.001	hey, dude, i don't know how to say this to you gently, but your girlfriend, umshe's a fucking cunt.
994	0.001	but for expediency's sake, you can call me gum.
925	0.001	i fucked over frank, carl's dead and i'm all alone.
499	0.001	you don't think that because i'm out of the package he thinks i'm not pure?
536	0.001	"now every morning when i hear the song, i'm like ""what the fuck are you guys saying?!"" wasn't there a part about exterminating juice?"
197	0.001	goodbye, teresa del taco.
1235	0.001	we're something calledcartoons.
1133	0.001	"once you go taco, you never go ""back-o."" oh!"
77	0.001	well, teresa, you've done as much as you promised.
589	0.001	you don't even wanna hear what they did to mr.
1130	0.001	and then they figured out how to drive my car, snuck into an ventand that pretty much brings us up-to-date.
200	0.001	we the nonperishables, motherfucker.
1125	0.001	booga booga booga.
248	0.001	sammy, bubula, where have you been?
562	0.001	sausage, control your insolent bun.
708	0.001	everything we've been led to believe is a lie.
186	0.001	like a mash-up, bro.
703	0.001	add that to your list of accomplishments.
98	0.001	"""just the tips."" what were we thinking?"
255	0.001	"it's not like anyone writes homeand says, ""god, i had the best tip."" get away from me."
900	0.001	somebody call a doctor because, honestly, this beat is sick.
523	0.001	"okay, so- did someone say ""queso""?"
17	0.001	he's probably headed back to our aisle and he'll be here tomorrow.
94	0.001	sergeant pepper, cue the fruits!
1176	0.001	they tried to send us to the barbeque section, for god's sake.
996	0.001	don't you talk to me about displacement!
490	0.001	i'm showing you physical evidence.
1178	0.001	"""lavash, sausages."" oh, honey mustard."
859	0.001	we're not supposed to understandthe will of the gods.
858	0.001	dead as a motherfucker.
597	0.0	you are the toy of a more talented and celebrated actor named ed-ward nor-ton.
699	0.0	"we are ""ray-ray"" far from home."
355	0.0	jeremiah was a bull frog was a good friend of mine i never understood a single word he said but i helped him drink his wine and he always had some mighty fine wine singin' joy to the world all the boys and girls, now joy to the fishes in the deep blue sea joy to you and me if i were the king of the world tell you what i'd do i'd throw away the cars and the bars and the wars make sweet love to you singin' now joy to the world all the boys and girls joy to the fishes in the deep blue sea joy to you and me you know i love the ladies love to have my fun i'm a high night flier and a rainbow rider a straight-shootin' son of a gun i said a straight shootin' son of a gun joy to the world all the boys and girls joy to the fishes in the deep blue sea joy to you and me joy to the world all the boys and girls joy to the fishes in the deep blue sea joy to you and me joy to the world all the boys and girls joy to the world joy to you and me joy to the world all the boys and girls joy to the fishes in the deep blue sea joy to you and me oh, yeah joy to the world yeah, yeah all the boys and girls joy to the fishes in the deep blue sea joy to you and me joy to the world all the boys and girls joy to the fishes in the deep blue sea joy to you and me joy to the world all the boys and girls joy to the fishes in the deep blue sea joy to you and me joy to the world dear gods you're so divine in each and every way to you we pray dear gods we pledge our love to you forever more we always felt we had a special bond take us to the great beyond where we're sure nothing bad happens to food once we're out the sliding doors things will all be grand we will live our dreams together in the promised land the gods control our fate so we all know we're in good hands we're super sure there's nothing shitty waiting for us in the great beyond
316	0.0	this is but one of manyas your particular chain of supermarkets is ever-expandingunified by a singular purpose to store food and products for human consumption.
318	0.0	por aca, por aca, this way.
277	0.0	fucking bent-ass, busted-ass nozz.
16	0.0	.then we'll get a lay of the landand we'll figure out where we're going.
973	0.0	as soon as you're out those doors, the gods kill our asses.
132	0.0	c-h-i-p-s, chips, chips, chips.
679	0.0	"ha-ha."" you're basically saying you don't care about me."
906	0.0	well, before i saw him jump to his deathhoney mustard said the great beyond is bullshit and the gods are monsters.
4	0.0	i'm having an out-of-sausage experience.
576	0.0	look, barry, the only way to respectfully honor frankis to completely forget about him.
811	0.0	the g-o-d is d-t-ddude.
851	0.0	the gods are gonna hear you talking about them- they ain't gods.
1221	0.0	why isn't anybody listening to me?
167	0.0	i'm a-hankering for a hunk of herb.
1104	0.0	you, frank, are the plaything of a demented, schlubby jewish actor named seth rog-an.
530	0.0	ay, santa chimichangai promise to be a good taco.
1206	0.0	i am sorbitol, malitol, xylitol, mannitolcalcium carbonate, soy lecithinvegetable-derived glycerin and talc.
665	0.0	you don't respect anyone else's beliefs.
546	0.0	"""gar babar"" what?"
1007	0.0	toma la pinche douche de la chingada de mierda pendejo son of a bitch!
1072	0.0	i wasn't respectful of your beliefsand i acted like i had all the answers, but i don't.
