	twss-probability	sentence
239	0.998	good evening, dont take your glove off, i am so happy that you have come.
505	0.995	that can happen.dont interrupt me!
60	0.993	one can be here just minutes seconds and not a moment longer.
214	0.991	i dont like when people are disturbed while sorting out their relationship.
192	0.991	if you dont love me i will perform many feats of valour and make you to like me!
46	0.982	i can stay in this kingdom no longer!
407	0.98	i cant do it without fitting, an order is an order.
151	0.977	dont put the blame on me!
379	0.977	but if you dont like it i will throw it away.
333	0.973	dont be angry, dont quarrel!
68	0.97	it is too small for you either, miss!
261	0.959	i am not a wizard i am merely a apprentice, but i think everything can still come to a happy end!
117	0.945	like this, to make it handier, just stay in touch calm and dont move or i can jab you.
282	0.941	how can you go to the ball in such dress!
405	0.933	it looks just like real one!
122	0.928	its all right, madam, dont be upset.
147	0.926	ive sung you the whole song about it!
140	0.925	its no good to be angry with one because of that!
172	0.911	forget it, forester and come to my ball with your daughter.
70	0.909	well, i'll scrap with the neighbours, im good at it!
217	0.883	you could pin it to your ball dress, it would be so beatiful.
168	0.876	ive got such connections that the king himself could envy me.
2	0.867	but we wont stay here long.
455	0.86	i hate those who want to do nothing and adore those who work hard.
503	0.857	my only son and heir fell in love for real.
129	0.851	can it be true that it will never happen?
238	0.842	it is very bad when the one who deserves to go to the ball never goes there.
484	0.839	somehow it hasnt come to my mind.
440	0.836	if such heartrending things can happen in my kingdom!
337	0.834	i knew it!
101	0.833	finally, i am happy!
431	0.83	never in my life was i so unhappy.
383	0.824	give it to me!
397	0.823	she has magical hands, she can do everything!
78	0.821	one can fall ill because of that!
251	0.821	who is that nice old man, who is dancing without music?
348	0.811	i dont dare to.
285	0.801	you've said it was tasteless!but you've shrieked it was ugly!
286	0.795	you dont know that, but ive become your true friend.
79	0.782	i cant see you, but somehow it seems to me that you are a good girl.
196	0.781	can it be true that i will never have joy and happiness?
476	0.781	dont be afraid!
165	0.775	that is, i have nearly no time left?
479	0.771	dont argue, youll go there.
338	0.769	i'm begging you, dont get upset!
311	0.769	its a pity the kingdom is too small, there's little one can afford.
244	0.765	sad?dont get upset!
475	0.759	it doesnt matter!
114	0.758	only when everyones gone, mother, for no one will need me then.
234	0.755	you still cant get used to the way i change!
224	0.75	i dont need to look at her foot since her face shows that it isnt she.
162	0.724	well, now they will get it hot!
22	0.713	i hide my sorrow i sing instead of weeping i even smile will i ever leave this place with its cinder and soot hello, goddaughter!
205	0.709	but i will not finish even in a month.
42	0.707	i would turn her into a frog a long time ago, but old woman has too many connections.
390	0.706	you cant imagine how glad i am!
289	0.703	i am delighted with that, i love miracles so much.
199	0.698	im not afraid in the least bit.
489	0.696	just put the rooms in order, before you go.
463	0.69	im so happy to see you!
163	0.687	thoughtless about how tired i am preparing for the royal ball!
150	0.674	the best ice-cream in the world, i've selected it personally!
416	0.663	well, let it be so, i am staying on the throne, give me my crown.
370	0.658	it hurts, doesnt it?
96	0.657	its my fault, why didnt i tell everything to the prince?
34	0.651	i think about the following my mother and my sisters were invited to the ball.
428	0.651	i dont know.
179	0.638	you are the best person i ever met.
315	0.636	look into my eyes, look into my eyes!
542	0.634	no one deposits any forfeits and no one redeems any forfeits, everyone will do what the king wants them to.
545	0.612	i will mend it so no one can see it.
83	0.606	it is so boring to receive presents only from myself.
100	0.606	supernaturally sincere and fabulously sweet.
123	0.605	anyone can command me but no one wants to thank me.
193	0.605	while i foster you all day long.
40	0.603	such a ball.
549	0.603	that's too bad!
94	0.598	wasnt it you who was singing here, in the forest?
44	0.598	indeed, it is very bad when the one who deserves to go to the ball never does.
510	0.593	i am resigning i am shutting up in cloister immediately!
425	0.58	it wasnt worthy to be noisy and capricious, was it?
398	0.574	you can do everything, you have magical hands!
89	0.561	i mean me and my little daughter, who became a stepdaughter because of my weakness.
159	0.553	i am going to introduce my court to you!
30	0.548	i dont know, maybe i went mad.
329	0.548	they tease me calling me cinderella because i work at fireside not sparing myself i go round and round the kitchen i am busy with oven all the time i am always in cinders because of my kindness i slave away from morning deep into the night.
453	0.541	boy, give me the magic stick!
341	0.515	youve got magic hands!
136	0.508	i fell in love.
478	0.501	dont be afraid, im not a villain or bad man.
543	0.497	an hour, a full hour and minutes.
305	0.493	i am out of my mind with worry!
334	0.486	in this case, let it be so, i am staying on the throne.
279	0.485	i want it so much that people notice what kind of person i am.
43	0.475	make something good, magical, miraculous and pleasant for all, who are present.
402	0.47	im going to sing you a little song.
259	0.465	they twist me round their little fingers!
21	0.446	i made some coffee to refresh you, ill bring it right away.
441	0.438	draw your big toe in!
513	0.435	but today i'm so happy i am dancing and i want to dance more and more.
265	0.434	it is as simple as that!
77	0.405	it is impossibly small for you!
298	0.404	and now, my dear, remember the most important thing.
358	0.397	why are you talking to me so sadly?
146	0.395	the most important thing is that their time has passed, their fairy tales are played.
429	0.384	such a shame, serves you haven't allowed yourself such a surfeit since you were .
430	0.377	they have upset me before the ball.
103	0.371	sire, but shes such a little child!
213	0.368	with no please and bother from my side.
118	0.358	but the slipper fits her foot!
458	0.353	the king and the whole kingdom!
181	0.351	what if fall into forgetful sleep for a moment and wake up in despair?
312	0.349	keep where you are, you impudent one!
3	0.349	im very glad.
309	0.347	it is bad to cheat the old man!
91	0.345	i get and i gain.
148	0.336	i am careful.
186	0.336	dont curtsey on stairs, it is very dangerous.
82	0.335	well, my friends, we found our way to entire happiness.
518	0.333	dont you recognise me?
226	0.324	i will introduce my own rules.
260	0.323	but i have so many things to do, godmother!
454	0.319	please, dont chuckle!
409	0.314	it isnt she anyway!
204	0.313	you fell in love?
420	0.308	of course, but weve been chatting just like friends.
47	0.308	i would fight them off at once!
113	0.307	do come, do not forget, on my word of honour, you wont regret it.
352	0.305	how do you find it here, my lady?i like it here very much.
536	0.299	repay me with good!
524	0.292	the boy fell in love.
219	0.287	im here, my darling.
166	0.285	but it was a bit large for the unknown beauty.
73	0.284	but i want people to notice it themselves.
28	0.283	since my courtiers behave so badly, farewell, my good lady.
24	0.279	what a bad taste!
290	0.278	dont to be an intruder on our joys, monster!
236	0.278	let us go now, i will hand you into the coach.
133	0.274	follow me, my little girls!
131	0.274	today you come over the air!yes, i am such an inventor.
360	0.267	do you want to go to the ball?
164	0.264	nonsense!she loves me not!
14	0.264	i want happiness to come to me.
112	0.262	i would be very grateful.
450	0.26	your beautiful bertha torn and everyone can see that.
59	0.255	she likes nothing better than arguing!
218	0.253	is it clear?
20	0.252	you are like a dream or a vision what if i scare you away with my clumsy touch?
426	0.252	something miraculous will certainly happen at the ball.
362	0.25	who do you think you are, you just put the crown in your head.
364	0.249	it is such a happiness!it isn't happiness!
38	0.247	why nobody reported me that he has grown up?
470	0.246	you think it would be lovely to have some ice-cream.
202	0.245	i found her weeping bitterly in the garden.
263	0.245	no, i can't let you go!
530	0.244	how can you get upset because of such a trifle?
515	0.242	hurry up, my dear, hurry up.
399	0.238	you are welcome.
391	0.234	i havent touched the ice-cream!
540	0.232	kids, form yourself into a ring!
87	0.23	do me a favour, taste it.
255	0.229	show me your face!
528	0.229	you have magical hands, amazing patience and you are very kind.
257	0.228	i feel offended!
275	0.225	you are walking lamely, my beauty!
544	0.225	hush, hush, sire, if my wife hears you i am dead!
209	0.222	i beg your pardon, marquis, but our guest has been already invited by me!
306	0.221	i am not as ridiculous as it seems to you, it's just because i love you.
212	0.215	may i present myself?
141	0.209	but that monster.
50	0.207	i see, corporal, why did you put them on?
307	0.202	it is known that it is improper to appear without the boots before the ladies eyes.
500	0.2	and you speak so simply, so frankly.
48	0.199	but i didn't know anything!
167	0.198	no, he knows for sure that nothing of the kind ever happened to him and will never happen again.
180	0.198	my wife is a very special woman.
278	0.198	wheres this monster?
200	0.194	and even more girls were frightened out of their wits.
10	0.19	good people, hey, good people?
291	0.189	he got poisoned and died!
421	0.186	look, whos come to visit us!
491	0.183	do as you please, but bear in mind that i will have such a fest, that will make you forget all of your hardships and sorrows.
520	0.181	did not praise you even once.
128	0.17	i dont know, but the girl who can fit the slipper upon her foot is the princes bride.
139	0.169	theyve been getting dressed for the ball for last three days they have trotted us off our death!
351	0.169	do not let anybody out, all right?
434	0.168	forester, i wanted to ask you, why do you shiver and look back all the time in these latter days?
25	0.166	having a single slipper on?
480	0.164	i am just an unhappy prince.
446	0.163	everyone is in the place he feels pleasant.
507	0.161	everything is prepared for the ball in the royal palace.
534	0.16	but i won't.
6	0.157	yet, where are we?
27	0.156	why didnt you report that to me?
69	0.155	yes, i fell in love.
99	0.154	and the page-boy will fall in love in her.
433	0.152	the boy got so active!
330	0.148	upon my soul, i married a cute woman, but she is harsh.
54	0.147	well, i will remember that.
26	0.144	i saw him in the forest nearby.
461	0.143	may it be that the prince just seemed to like the girl?
254	0.143	good boy, i give you a distinction.
368	0.143	wheres the gratitude?
281	0.142	i wish the girl to be found before nightfall.
504	0.141	whats the matter with you, my beauty?
61	0.139	how many slippers did she have on?
482	0.138	why are you so pale?
495	0.138	i may not!
105	0.136	i sewed them down a while ago, sister anna.
371	0.135	there wasnt any miracle so far.
499	0.135	"the king said to me ""i am glad to see you"" once, once."
115	0.133	i have been wandering in the forest from the first light.
12	0.132	do not forget that you are invited!
284	0.13	may i go now?
248	0.129	what a wizard managed to put it on your foot?
295	0.129	i thought it over, after the ice-cream i would have told you straight that i love you.
102	0.128	but i know everything about them.
547	0.128	even through those, whom i love very much.
243	0.127	i love you.
15	0.125	do you know who was singing in the forest nearby?
314	0.124	look what ive made.
508	0.122	it isn't fair.
85	0.121	good people, where are you?
55	0.12	but i wasn't.
227	0.12	i am rushed off my feet from weariness preparing for the king's ball, but you are just dancing.
511	0.119	because i have to leave.
373	0.118	what a horrible thing!
64	0.116	i havent given a single notice to them for months.
206	0.113	you are welcome, which size?
246	0.112	are you sick, my boy?
249	0.111	because i am very proud.
194	0.11	you wont believe it, madam, how many girls we left behind immediately after start.
221	0.109	dont believe him, he can.
422	0.104	who is this girl?
120	0.103	of course, we should dance!
517	0.102	cinderella, put this slipper on.on my foot!
514	0.097	then, could you sing something and dance for us?
523	0.096	is it true, soldiers?
400	0.096	blonde or brunette?
51	0.096	they are silent!
413	0.094	this will bring you luck.
171	0.094	i am resigning.
384	0.094	you know, prince, there have been some days when i got so tired that i was dreaming about sleeping even when i was asleep.
271	0.093	do you feel sad?
155	0.091	i ironed it a while ago, sister marianna she was dancing!
539	0.091	but i cant!cinderella, help anna!
256	0.091	sit down, your majesty.
45	0.09	i adore this job.
175	0.09	and this golden hair!
389	0.089	stay like this.
97	0.089	dancing, before you ironed my collar?
445	0.089	dancing, before you have sewn down my ruffles?
302	0.088	while polishing the floor, i learned to dance.
538	0.088	oh, oh, oh!
23	0.087	but she ran away so fast, that this glass slipper slipped off her foot and fell on the stairs.
124	0.085	i scared you, my child!
176	0.084	are we still in wonderland?
233	0.084	i brought this ruby glass of ice-cream to comfort you.
481	0.083	what drove you to such a condition then?
157	0.082	wheres your father, you ungrateful?
380	0.082	my dear little girls!
465	0.082	to cease the quarrelling i will take the flower myself.
211	0.081	o, your majesty, its such a annoyance!
427	0.077	sire, i am silent because i can't talk.
451	0.075	no, your majesty, i would sort that out!
86	0.075	today the friends will work instead of you boy!
201	0.074	the unknown beauty has lost this slipper in the palace, too!
80	0.074	i made this rose from satin shreds.
241	0.073	on my birthday or on holidays.
145	0.073	hes a prince, too, hes quite brave and decisive, too, and he met a girl at the ball, too.
58	0.072	all right then, i'll stay.
37	0.071	i am ashamed to confess, you are right.
98	0.071	why are you silent?
369	0.071	whats the matter with you then?
266	0.07	get married, get married!
353	0.07	i adore these fabulous feelings, which will never come to an end.
208	0.07	she does everything to drive us crazy!
190	0.068	now we are going to play the royal forfeits.
296	0.068	this girl is a beautiful flower.
406	0.068	he wanted guests to dance longer.
223	0.068	where are you?
448	0.067	though no one in the world likes ice-cream as i do.
435	0.065	everyone is happy.except, old foresters wife, but it's her own fault.
487	0.065	mysterious and beautiful stranger.
469	0.063	what do you need these notes for?
189	0.063	let me ask your daughters to fit the slipper.
350	0.063	i will complain to the king!
355	0.062	yet cinderella hasnt told if she loves me.
232	0.062	what a success i had there!
258	0.061	he was speaking .
319	0.06	what a bad taste!what for ugliness!
497	0.06	they had had an important conversation and then she ran away.
488	0.06	i work like a beaver!
310	0.06	haven't you get tired on the way?
228	0.06	and i will gladly bestow my granddaughter in marriage to him.
153	0.059	end your conversation.
467	0.058	while suffering insults in vain, i learned to think.
149	0.057	you know what i mean?
332	0.056	and no one knows about that.
417	0.056	that is settled then, i will drive you out of your own house.
324	0.055	she was dancing!
392	0.055	wait, silly girl, how can you coach without horses.
235	0.054	what can we do?
250	0.054	they will eat ice-cream .
472	0.054	listening to the cats purring i learned to sing.
76	0.054	i can see clear that even in splendid ball dress you stayed the same nice, industrious, kind-hearted girl.
449	0.054	how old was she?
216	0.054	you have overeaten!
456	0.053	you can trust me, i can see through the people.
410	0.051	you must return on the stroke of .
372	0.051	why did you questioned me so thoroughly, fools?
225	0.05	i am not a wizard, i am just a apprentice.
299	0.05	thank you for everything.
412	0.05	out of idle curiosity!
436	0.049	i will complain against the king!
323	0.049	i will comfort myself when everyone's gone, i will run to the court park, i will stand beneath the windows and feast my eyes at celebration at least from afar.
336	0.049	look at her, its her.
303	0.048	yes, godmother, i want it very much, but i cant.
385	0.047	he can refuse no request.
387	0.047	o, dear, in fact, you are still such a little girl.
158	0.047	who is she?
343	0.046	i think we are.
106	0.046	so you are dancing.
191	0.046	what am i talking?
496	0.045	dear cinderella, i watch you working all day long.
444	0.045	these glass slippers will bring you luck!
533	0.045	are the ball dresses, which i told you to sew down during one night, ready?
39	0.045	can you see him?
32	0.044	what an outrage, why havent my courtiers reported that?
439	0.043	here they are!
415	0.043	lock the gate!
313	0.043	where are the others?
31	0.042	do you know what am i thinking of?
36	0.042	i will find her!
452	0.041	this is a very old fairy tale that was first told many centuries ago and still lives, and everybody tells it in a different way.
403	0.041	why do i have to do everything?
229	0.04	the first forfeit is yours.
198	0.04	mother, i cant.cinderella, i am begging you, my dear, beloved daughter.
535	0.039	he always grumbles.
169	0.039	everything is familiar here.
395	0.038	try to guess what am i thinking of?
414	0.038	she doesnt make difficulties!
354	0.038	princesses always play hard-to-get.
154	0.037	it just makes you heart high.
320	0.037	what were you doing there?
29	0.036	but last time you appeared out of the dark corner behind the fireplace.
328	0.036	the way you shake your head seems familiar to me!
5	0.036	yes, i like to do so.
464	0.036	i will drive him out of his own home.
84	0.036	a disgusting flower.
72	0.036	wheres the prince?
66	0.035	do you want some?
269	0.035	it is not without a reason that our land is called the fairy kingdom.
297	0.035	what a good girl!
7	0.033	miracles are not over.
316	0.033	roses will grow on their own.
240	0.033	no, dear mother, dont!
486	0.032	though i am not a wizard, but merely a apprentice.
104	0.032	may i have the next dance with you, oh charming young lady?
283	0.031	bring the coach to the doorsteps after minutes.
67	0.031	i wanted to fight the mad bear.
92	0.031	i will load you with money!
394	0.03	i aways meant well to you.
498	0.03	my own daughter, cinderella.
327	0.03	a bit of magic.
62	0.03	in a moment i am starting to work miracles.
272	0.03	i know you wanted to run away to the ball today.
459	0.03	to the king!
119	0.03	wonderwork, nothing can be seen!
9	0.029	cinderella, sometimes we were at quarrel with you, but you shouldnt be angry with us because of that.
423	0.029	but let me make a few remarks, listen to me.
443	0.029	i mean my spouse and her daughters from her first marriage.
65	0.029	dont cry, mary-anna the king is a widower, ill get a place for you, too.
474	0.028	but he has never heard about me.
195	0.028	nonsense, she does, thats why she didnt stay for supper!
419	0.028	well, have you begged the king to register me and my little girls in the book of the reigning beauties of the kingdom?
331	0.027	he never plays or runs with me.
363	0.027	i am not a wizard, i am just a apprentice, but friendship can work real wonders!
438	0.026	i expected the wonders from this night.
127	0.026	do you recognise her?
173	0.026	he draw a sigh once.
457	0.026	while you are.
242	0.025	let me tell you that friendship can work real wonders.
356	0.025	let me introduce to you a girl, who has never been here before.
16	0.024	arrange it that my daughters were enlisted in the kingdoms book of the reigning beauties.
519	0.024	follow me, cinderella.
404	0.024	he liked the girl so much that he was wholly at a loss.
531	0.024	i have a very sad news.
550	0.023	is that so?upon the word of kings honour!
109	0.023	i'm telling you, the slipper fits upon the foot of one of my daughter!
177	0.023	have you met anybody?
18	0.022	i don't know.
357	0.022	today you were offended times.
411	0.022	do you have a needle and cotton?sure.
108	0.022	i am resigning, i will cloister!
521	0.022	where are you, poisonous snake?
111	0.022	good morning, madams!
378	0.022	for fathers sake she helped anna to put the slipper on.
349	0.022	he is the kindest wizard in the world.
541	0.021	is it me?yes, it's you.
317	0.021	try to find him!
277	0.021	the king ordered to set back the clock one hour.
374	0.02	what a smart boy!
75	0.02	i am absolutely healthy, sire!
525	0.019	a very striking compliment.
187	0.019	let me introduce my ministers to you the minister of ball-room dancing.
532	0.019	now everyone will be lost, the prince and i.
88	0.018	now go to my treasury there you will be given seven-leagued boots for swiftness.
116	0.018	the slipper fits upon the foot of one of my daughter, corporal, call for the king!
548	0.018	connections are connections, but one must have conscience, too.
144	0.018	is it truth that you have spoken to the king?the very truth, my dear wife.
516	0.017	maybe thieves came to the forest?
366	0.017	have you another size?negative, madam.
501	0.017	live your life on your own!
367	0.016	she is as kind as i am!
376	0.016	i run and i bustle, i beg and i quiz, i beseech enchant.
125	0.016	"it is called ""good beetle""."
494	0.015	what is to be done?
1	0.015	where were you?in the forest.
53	0.015	one day you will be asked what can you present?
502	0.015	wait, silly girl, how can you coach without a coachman.
152	0.015	maybe you have one more daughter?
437	0.014	good day, mr forester.good day, your majesty.
215	0.014	the slipper ran away from you, beauty!
267	0.014	what are you talking about, darling, is it possible.
527	0.014	excuse us for our discourtesy.
442	0.014	your time is up, your time is up, end your conversation.
460	0.014	thank you, but what about fitting?
203	0.014	she knows all the answers!
339	0.014	first of all, lets roll a pumpkin here.
493	0.014	prince looked at me times, he smiled once.
197	0.013	certainly, the old friends are good.
293	0.013	i care about you much more than about my own daughters.
432	0.013	excuse me, madam, the next forfeit is yours.
325	0.013	where is she, my dear daughter?
287	0.013	a friend of mine .
526	0.013	may i ask you a question?
529	0.012	you see what a poisonous temperament has this family, but you are angry with me.
52	0.012	your royal highness!
184	0.012	i adore new mysterious guests.
447	0.012	your stomach is frost-bitten!
335	0.012	what for an ugliness!
365	0.011	the wine we drank from a magic glass in the magic tavern was fabulously excellent!
142	0.011	i have to find this girl to ask her why has she offended me.
375	0.011	what for fabulous piggishness!
8	0.011	lets talk about you.
33	0.011	what do you think?so do i.
490	0.01	no, i haven't, i took a rest on the way.
207	0.01	dear invitees to the ball, o, dear invitees to the ball!
182	0.009	the horses will turn into mice, coachman into rat and coach into pumpkin.
340	0.009	do you know, my little girls, what was this good-for-nothing doing?
466	0.009	what's the matter with you?
107	0.009	wonderland is vast.
17	0.009	you see, how glad i am to meet you.
377	0.009	what would you advise him?
247	0.009	so, you have spoken to the king and wheedled nothing out of him?
292	0.008	and you will die in the forest, and your mad bear will eat you!
344	0.008	if an evil wizard put spell on you, i will kill him!
121	0.008	o, what a pleasing message have i to deliver to you!
408	0.008	i adore you and hate your evil step-mother.
13	0.008	and no connection can help to make a foot small, make a soul great and a heart fair.
388	0.008	not at any price!
220	0.008	i, the fairytale king, tell you that you are on the verge of an amazing event!
210	0.007	his royal highness.
537	0.007	once there lived a good beetle, an old mutual friend he never muttered or shouted, just buzzed with his wings and strictly forbade to quarrel.
74	0.007	look what she wept at!
4	0.007	what a perfume is there!
492	0.007	these boots exhaust us, they take us far beside the target.
326	0.007	have you begged the king to raise your wages?
63	0.007	move along, there is a draught here once.
160	0.007	of which for nothing. times.
137	0.006	shame on you, forester.
382	0.006	what a mess, what should we do, marquis?
41	0.006	nothing of the sort, your majesty!
35	0.006	we grow old for sorrow and grow young for joy.
347	0.006	nobody crossed the gate!
71	0.006	two barrels of wine!
93	0.005	a king's word is a word of honour!
156	0.005	if the slipper fits her foot the prince will marry her!
522	0.005	maybe an evil wizard haunts you?
81	0.005	get to know thyself, and grind coffee beans for weeks.
270	0.005	serves of ice-cream!
322	0.005	take a look at her foot!
506	0.005	no, your majesty, i would kill the monster!
264	0.005	go and say farewell to your father.
262	0.005	if you are poor and simple girl, i will be glad to hear it.
300	0.005	at midnight your new dress will turn into old and poor one.
57	0.005	soldiers, do you know what love is?
546	0.004	today you deserved praise.
468	0.004	with our kind and mysterious guest.
321	0.004	the girl who can fit the slipper upon her foot is the princes bride.
237	0.004	wash the windows, wax the floors, white the kitchen, weed out the garden, plant rosebushes under the windows, sort bags of beans separate white and brown beans.
294	0.004	dear godmother, you always appear all of a sudden!
134	0.003	what for?to rest from domestic cares, my darling.
280	0.003	prince, wheres the prince?
381	0.003	yes, mother.show them!
346	0.003	do you understand the situation?
512	0.003	what was he doing there?he was speaking to the king.
230	0.003	it's as simple as anything, your majesty!wonderful!
308	0.003	they will dance with the prince.
342	0.003	what about the roses?
174	0.003	to the king?
274	0.003	you may do so, my dear.thank you!
90	0.002	has the girl crossed the gate of the fairy kingdom?
19	0.002	verses, speeches and compliments.
95	0.002	to chase away his worries, he ran away, at oclock, local time.
0	0.002	i'm your friend and you're my friend, an old devoted friend!
273	0.002	i will return the glass to the palace.
132	0.002	or tom thumb, he always plays for money.
222	0.002	thank you for your care.
462	0.002	to catch the princes bride, madam!
386	0.002	thank you, dear godmother.
178	0.001	maybe, there is a monster in the forest, threatening you by mortal danger?
276	0.001	thank you, dear prince.
288	0.001	thank you for your politeness, tenderness and kindness.
188	0.001	you know about my connections hell lose his head, hell die in prison or in dungeon.
471	0.001	now, my dear, i will gain my object to enlist you in the kingdoms book of the reigning beauties expressions of high regard!
418	0.001	total expressions of high regard from persons of the highest rank.
49	0.001	thank you, dear boy, i will never forgive your kindness.
185	0.001	what a hairdressing saloon is there!
477	0.001	we were carried to wonderland.
359	0.001	cowards, liars, flatterers!
161	0.001	dear, kind, mysterious guest.
483	0.001	now he can hear neither requests nor music.
11	0.001	people of the fairy kingdom, hey, people of the fairy kingdom!
135	0.001	we are listening, your majesty!
361	0.0	i will go with the minister round the country watching through spyglasses, but you will search the girl with the help of this glass slipper.
401	0.0	here she is, your majesty, my dear son-in-law!
318	0.0	evil people often took advantage of his kindness, so he stopped his ears with wax.
424	0.0	hares will weed out the garden, mice will sort the beans, cats will grind the coffee beans.
304	0.0	the king got up at in the morning he personally dusted the grand staircase, then he paid a visit to the kitchen, had a row with the chef, enraged, he relinquished the crown, but after all tempered justice with mercy and now he is running along the royal road checking that everything is fine.
301	0.0	gatekeepers of the fairy kingdom, can you hear me?
396	0.0	sir marquis de pas de trois your majesty, i know this girl!
393	0.0	no-no-no, it's a done deal, my dear son-in-law!
345	0.0	for instance, puss in boots he is a regular fellow, clever cookie, but when he comes he takes his boots off and sleeps at fireside.
126	0.0	change into other clothes, cinderella, your wedding-day is near.
268	0.0	we, the true fairies, are so emotional that we can grow old or young as easily as you, humans, turn pale or red.
253	0.0	speak, boy, we are listening to you.
56	0.0	lets have a heart-to-heart talk.
252	0.0	the glass slipper fits her foot, consequently, she is the prince's bride, thats what you have told to the soldiers.
110	0.0	cinderella, you wanted to run to the park and stand beheath the kings windows.
231	0.0	page-boy will find his happiness, too.
473	0.0	we got to love our old good beetle for his kind soul, what a merry fellow!
183	0.0	soldiers, go to the palace on bare feet, follow the royal mother-in-law!
170	0.0	a daughter will be born to the prince, she will be the spitting image of cinderella.
485	0.0	begging your pardon, madams, they are seven-league boots.
143	0.0	prince, dear prince, where are you?
138	0.0	her sister, who was very the same as she is, was eaten by an ogre.
130	0.0	lets listen to him, hes a good boy an excellent pupil, he reads a lot, even makes verses.
509	0.0	the royal herald is speaking to you can you hear me?
245	0.0	i adore these wonderful features of his soul faithfulness, generosity, ability to love.
