"CASE"	"SERIAL"	"REF"	"QUESTNNR"	"MODE"	"STARTED"	"D101"	"D106_01"	"E101_01"	"E101_02"	"E101_03"	"E101_04"	"E101_05"	"E101_06"	"E101_07"	"E101_08"	"E101_09"	"E101_10"	"E101_11"	"E101_12"	"E101_13"	"E101_14"	"E101_15"	"E101_16"	"E101_17"	"E101_18"	"E101_19"	"E101_20"	"E101_21"	"E101_22"	"E101_23"	"E101_24"	"E101_25"	"E101_26"	"E101_27"	"E101_28"	"E101_29"	"E101_30"	"E101_31"	"E101_32"	"E101_33"	"E101_34"	"E101_35"	"E101_36"	"E101_37"	"E101_38"	"E101_39"	"E101_40"	"E102_01"	"E102_02"	"E102_03"	"E102_04"	"E102_05"	"E102_06"	"E102_07"	"E102_08"	"E102_09"	"E102_10"	"E102_11"	"E102_12"	"E102_13"	"E102_14"	"E102_15"	"E102_16"	"E102_17"	"E102_18"	"E102_19"	"E102_20"	"E102_21"	"E102_22"	"E102_23"	"E102_24"	"E102_25"	"E102_26"	"E102_27"	"E102_28"	"E102_29"	"E102_30"	"E102_31"	"E102_32"	"E102_33"	"E102_34"	"E102_35"	"E102_36"	"E102_37"	"E102_38"	"E102_39"	"E102_40"	"TIME001"	"TIME002"	"TIME003"	"TIME004"	"TIME005"	"TIME006"	"TIME_SUM"	"MAILSENT"	"LASTDATA"	"FINISHED"	"Q_VIEWER"	"LASTPAGE"	"MAXPAGE"	"MISSING"	"MISSREL"	"TIME_RSI"	"DEG_TIME"
27			"base"	"interview"	2019-02-22 20:37:43	2	"22"	1	1	1	1	1	1	1	2	1	1	1	1	2	1	2	1	1	1	2	1	1	2	2	1	2	2	2	1	2	2	1	1	2	2	2	1	2	2	2	1	5	5	4	4	3	5	5	3	1	4	5	4	2	3	2	1	3	3	2	4	5	5	5	2	4	3	1	2	2	3	4	4	4	5	4	4	4	5	4	2	10	12	5	17	323	6	373		2019-02-22 20:43:56	T	F	6	6	0	0	1.25	13
30			"base"	"interview"	2019-02-22 20:40:01	2	"24"	1	1	1	1	1	1	1	2	2	1	2	2	2	2	1	2	2	1	2	1	2	2	2	2	2	2	1	2	2	2	1	1	2	2	2	1	1	2	2	1	4	5	4	4	5	5	5	5	4	4	5	4	4	4	5	5	5	5	5	5	5	5	5	4	5	5	3	5	4	5	4	4	5	5	5	4	4	5	5	4	60	1	2	9	286	8	318		2019-02-22 20:46:07	T	F	6	6	0	0	1.82	119
36			"base"	"interview"	2019-02-22 20:47:17	3	"999"	1	1	1	1	1	1	1	2	1	1	1	2	1	1	1	1	1	1	1	2	1	2	2	1	1	1	1	2	1	2	1	1	2	2	2	1	2	2	1	1	2	4	4	4	4	4	4	2	4	2	4	2	4	4	4	3	4	4	4	4	4	5	5	2	3	4	4	3	4	5	2	4	4	5	2	4	3	3	3	2	11	119	71	32	299	17	367		2019-02-22 20:56:26	T	F	6	6	0	0	0.65	2
37			"base"	"interview"	2019-02-22 20:47:21	2	"25"	2	1	1	2	1	2	2	2	1	1	2	1	2	2	1	2	2	1	2	2	1	2	2	2	2	2	2	2	1	2	1	1	2	2	1	1	1	2	2	2	2	5	5	5	3	4	5	5	4	5	4	4	5	4	5	4	4	5	5	5	4	5	5	5	5	4	1	5	4	4	3	4	2	5	3	3	4	5	3	2	7	14	74	28	473	6	533		2019-02-22 20:57:23	T	F	6	6	0	0	0.97	10
46			"base"	"interview"	2019-02-22 20:51:06	2	"23"	1	2	2	2	2	2	2	1	1	2	2	2	2	1	2	2	2	2	1	1	2	1	1	1	1	1	2	1	2	1	2	2	1	1	1	2	2	1	1	2	3	4	3	3	5	5	5	5	5	5	4	3	3	4	2	3	3	4	2	3	5	5	4	4	3	5	3	3	3	3	5	3	5	4	3	3	3	4	5	5	12	10	4	51	348	9	434		2019-02-22 20:58:20	T	F	6	6	0	0	0.99	3
49			"base"	"interview"	2019-02-22 20:56:06	1	"29"	2	1	1	1	1	1	1	1	1	1	1	1	1	1	1	2	1	1	1	1	1	2	2	2	1	1	2	2	2	2	2	1	2	2	1	2	2	2	2	2	5	5	5	3	4	5	5	3	4	4	5	4	5	4	4	3	5	5	5	5	5	5	5	4	4	4	3	5	5	5	2	5	4	4	3	3	4	4	5	4	14	6	3	59	894	10	440		2019-02-22 21:12:32	T	F	6	6	0	0	1.03	13
50			"base"	"interview"	2019-02-22 20:56:22	2	"24"	1	2	1	1	1	1	1	2	2	1	1	1	1	2	1	2	2	1	2	1	1	2	2	1	2	2	1	2	2	2	2	2	2	2	2	1	2	2	2	1	3	4	4	4	4	4	3	5	4	5	2	3	5	4	4	4	3	4	5	4	5	5	5	4	4	4	4	4	4	5	3	4	5	5	2	4	3	4	5	3	1	1	1	10	323	6	342		2019-02-22 21:02:04	T	F	6	6	0	0	2.4	222
53			"base"	"interview"	2019-02-22 20:56:37	1	"21"	1	1	2	1	1	2	2	2	2	1	1	1	2	2	2	1	2	1	2	2	1	2	2	1	2	2	2	2	1	2	2	1	2	2	1	1	2	2	1	1	5	4	4	5	3	4	4	5	4	3	5	3	4	3	2	3	4	5	3	4	3	5	5	5	5	3	4	5	3	4	5	4	5	5	4	3	5	5	3	4	2	14	3	11	326	9	365		2019-02-22 21:02:42	T	F	6	6	0	0	1.73	64
57			"base"	"interview"	2019-02-22 20:59:41	1	"26"	1	1	2	1	1	1	2	2	1	1	2	2	1	2	1	1	1	1	2	1	1	2	2	1	1	2	1	1	1	2	1	1	1	2	1	1	2	1	2	1	5	5	4	5	5	5	5	5	5	5	4	3	5	5	5	5	5	5	5	5	5	5	5	5	5	5	5	5	5	5	5	5	5	5	5	5	5	5	5	5	4	10	5	16	238	7	280		2019-02-22 21:04:22	T	F	6	6	0	0	1.63	32
58			"base"	"interview"	2019-02-22 20:59:59	1	"27"	2	2	1	1	1	1	1	2	2	1	2	1	2	2	2	2	1	1	2	2	1	2	2	1	1	2	2	2	2	2	1	1	2	2	1	2	2	2	2	2	3	3	4	5	5	3	5	5	5	3	5	5	5	5	3	5	4	5	4	5	5	5	5	3	5	4	4	5	3	5	4	4	5	5	4	3	4	5	5	4	11119	7	10	51	552	15	640		2019-02-23 00:15:53	T	F	6	6	0	0	0.66	5
63			"base"	"interview"	2019-02-22 21:02:35	1	"28"	2	1	1	2	2	1	2	2	2	1	2	1	2	2	1	2	2	1	2	2	2	2	2	2	2	2	2	2	2	2	2	2	2	2	2	2	2	2	2	2	5	3	3	3	5	2	5	3	5	5	5	5	3	3	3	3	5	3	5	5	3	5	5	5	5	5	5	5	5	5	5	5	3	5	3	3	5	5	4	3	21	14	6	56	283	7	387		2019-02-22 21:09:02	T	F	6	6	0	0	0.86	3
65			"base"	"interview"	2019-02-22 21:08:11	1	"23"	1	1	1	2	1	2	1	2	2	1	2	1	1	2	2	1	1	2	2	2	2	2	2	2	2	2	1	2	2	2	2	2	2	2	2	2	1	2	1	1	3	4	3	4	3	3	3	4	5	3	3	3	4	4	4	3	3	3	5	4	5	4	5	4	4	3	4	4	4	4	4	3	3	5	4	3	3	5	3	3	2	2	4	11	278	6	303		2019-02-22 21:13:14	T	F	6	6	0	0	2.13	104
67			"base"	"interview"	2019-02-22 21:09:56	2	"21"	1	1	1	1	1	1	1	2	1	1	2	2	1	1	1	2	2	1	2	1	1	2	2	2	2	2	2	1	2	2	1	2	2	2	2	1	2	2	1	2	5	5	4	4	5	5	4	5	4	5	5	2	3	2	5	4	3	5	5	5	5	5	4	3	5	5	4	4	4	5	5	4	4	5	3	4	2	4	4	5	12	9	17	33	312	24	391		2019-02-22 21:16:43	T	F	6	6	0	0	0.83	3
72			"base"	"interview"	2019-02-22 21:11:30	2	"19"	1	2	1	1	1	2	1	2	2	1	2	2	1	2	1	2	2	1	2	2	2	2	2	1	2	2	2	2	2	2	1	2	2	2	1	2	2	2	2	1	3	2	5	2	5	2	3	5	3	5	4	2	4	4	5	3	5	5	5	3	3	5	5	2	3	5	5	5	5	5	2	3	4	5	2	4	5	5	5	2	3	4	2	12	218	6	245		2019-02-22 21:15:35	T	F	6	6	0	0	2.34	75
74			"base"	"interview"	2019-02-22 21:13:44	1	"21"	2	2	1	1	1	1	1	2	2	1	2	2	1	2	1	2	2	1	1	1	1	2	2	2	1	2	1	1	1	2	2	2	2	2	2	1	2	2	1	1	4	4	5	4	4	3	2	5	2	5	5	3	5	3	5	3	5	4	5	5	5	5	5	5	4	4	5	3	5	5	4	3	2	5	5	4	4	5	2	4	14	47	15	60	526	7	634		2019-02-22 21:24:53	T	F	6	6	0	0	0.63	1
75			"base"	"interview"	2019-02-22 21:14:17	1	"28"	2	1	1	1	1	1	1	2	2	1	2	2	1	2	1	1	1	2	1	2	1	2	2	2	2	1	1	2	2	2	2	2	2	1	1	2	1	2	1	1	2	3	2	2	3	2	3	1	2	4	2	2	3	4	2	3	1	2	5	1	5	1	1	1	1	1	1	1	1	2	1	2	1	1	3	2	4	1	4	3	21	179	4	73	505	10	625		2019-02-22 21:27:29	T	F	6	6	0	0	0.64	2
76			"base"	"interview"	2019-02-22 21:14:37	1	"21"	1	1	1	1	1	1	2	1	1	1	2	1	1	1	1	1	2	1	2	2	1	2	2	2	2	2	1	2	1	1	2	2	2	2	2	1	2	2	2	1	3	5	5	5	3	5	5	1	5	5	5	5	1	3	5	3	5	5	3	3	5	5	5	5	5	5	5	5	3	3	1	3	5	5	5	3	5	5	3	5	17	45	25	74	334	8	470		2019-02-22 21:23:00	T	F	6	6	0	0	0.61	0
79			"base"	"interview"	2019-02-22 21:16:20	3	"27"	2	1	2	1	1	1	1	2	2	2	1	2	1	1	2	2	1	1	2	1	2	2	2	2	2	2	2	2	1	2	2	2	2	2	2	1	1	2	2	2	2	4	5	4	4	4	2	5	2	4	2	4	1	2	4	2	2	4	2	4	3	3	4	3	3	3	2	2	4	2	4	3	2	3	3	2	5	4	4	2	14	17	11	20	423	13	498		2019-02-22 21:24:38	T	F	6	6	0	0	0.84	5
81			"base"	"interview"	2019-02-22 21:17:18	1	"21"	1	1	1	1	1	1	1	1	1	1	1	1	1	1	1	1	1	1	1	1	1	2	2	1	1	1	1	2	1	2	1	1	1	1	1	1	1	2	1	1	5	5	5	5	5	5	5	5	5	5	5	5	5	5	5	5	5	5	5	5	5	5	5	5	5	5	5	5	5	3	5	5	5	4	4	5	5	5	5	4	2	7	5	27	146	4	191		2019-02-22 21:20:29	T	F	6	6	0	0	1.87	69
84			"base"	"interview"	2019-02-22 21:18:20	3	"27"	1	1	1	1	1	1	1	1	1	1	1	1	1	1	1	1	1	1	2	2	1	2	2	1	1	1	1	2	1	2	1	1	2	2	1	1	1	2	2	1	5	5	5	5	5	5	5	5	5	5	5	5	5	5	5	5	5	5	5	5	5	5	5	5	5	5	5	5	5	5	5	5	5	5	5	5	5	5	5	5	13	18	12	34	230	13	320		2019-02-22 21:23:40	T	F	6	6	0	0	0.84	4
85			"base"	"interview"	2019-02-22 21:18:34	2	"25"	1	1	1	2	1	1	1	1	1	1	2	2	1	2	1	1	2	1	2	1	2	2	2	1	2	1	1	2	2	2	1	1	2	2	2	2	2	2	2	1	4	4	4	2	5	5	4	4	5	5	5	1	5	5	5	2	4	5	3	5	4	5	5	2	5	4	2	4	3	5	4	3	4	5	3	4	4	5	5	2	240	50	28	143	494	11	590		2019-02-22 21:34:40	T	F	6	6	0	0	0.35	0
89			"base"	"interview"	2019-02-22 21:24:29	1	"24"	1	1	1	2	2	2	2	2	2	1	2	1	1	2	1	2	2	1	2	2	1	2	2	2	2	2	2	2	2	2	1	1	2	2	2	1	2	2	2	2	3	5	2	2	5	4	5	5	5	4	4	2	3	5	5	3	4	4	5	3	3	5	5	4	5	5	3	5	4	5	2	5	4	5	5	4	5	5	5	4	36	17	7	36	317	7	420		2019-02-22 21:31:29	T	F	6	6	0	0	0.81	2
90			"base"	"interview"	2019-02-22 21:26:12	1	"28"	1	1	1	1	1	1	1	2	2	1	2	2	2	1	1	2	1	1	2	2	1	2	2	1	2	2	2	2	1	2	2	1	2	2	2	1	1	2	2	1	5	5	5	5	5	5	5	5	4	5	5	4	3	5	5	4	5	5	5	3	5	5	5	5	5	5	3	4	4	5	3	5	3	5	4	5	5	5	3	3	14	6	2	12	182	7	223		2019-02-22 21:29:55	T	F	6	6	0	0	1.84	43
95			"base"	"interview"	2019-02-22 21:30:38	2	"29"	2	1	2	2	2	1	2	1	2	2	1	1	2	2	2	1	1	2	2	2	2	2	1	2	2	2	2	2	2	1	1	2	1	1	2	1	1	2	2	2	5	2	5	5	5	3	5	5	5	5	2	1	4	5	5	1	1	5	5	5	5	5	2	4	4	5	4	4	4	2	2	5	3	5	5	1	1	4	3	5	5	4	5	29	388	6	437		2019-02-22 21:37:55	T	F	6	6	0	0	1.6	31
97			"base"	"interview"	2019-02-22 21:30:48	1	"28"	2	1	1	1	2	1	2	1	1	1	1	2	1	1	1	2	1	1	2	1	1	2	2	1	2	2	2	2	1	2	1	1	1	2	1	2	2	2	1	2	3	4	4	4	3	3	3	5	3	4	3	4	5	3	4	4	4	4	5	2	4	3	3	5	4	4	5	4	4	4	5	4	4	5	5	4	4	4	4	3	10	92	7	40	461	8	538		2019-02-22 21:41:06	T	F	6	6	0	0	0.77	2
105			"base"	"interview"	2019-02-22 21:36:44	1	"28"	1	1	1	2	1	1	2	2	1	1	2	2	2	1	1	2	2	1	2	1	2	2	2	2	2	1	2	2	2	2	2	1	1	2	2	1	2	2	2	1	1	1	1	5	3	2	5	3	1	1	5	5	2	3	4	5	4	1	5	2	5	5	5	5	2	1	3	5	5	4	4	1	3	5	5	3	5	5	4	2	43	65	85	272	719	10	822		2019-02-22 21:56:38	T	F	6	6	0	0	0.32	0
110			"base"	"interview"	2019-02-22 21:45:34	2	"23"	1	1	1	1	1	1	1	2	1	1	1	2	1	1	1	2	1	1	2	2	1	2	2	2	1	2	1	1	1	2	1	2	1	2	1	1	2	2	1	1	5	5	5	5	5	5	5	5	5	5	5	5	5	5	5	3	5	5	3	5	5	5	5	4	5	5	5	5	5	5	5	4	5	4	5	5	3	5	5	5	17	9	4	40	389	6	465		2019-02-22 21:53:19	T	F	6	6	0	0	1.05	7
112			"base"	"interview"	2019-02-22 21:46:15	1	"24"	1	2	1	1	1	2	2	2	1	1	2	2	1	1	1	2	2	1	2	1	1	2	2	2	2	1	2	2	2	1	2	1	2	2	2	1	2	2	2	1	4	2	3	4	4	5	4	4	2	4	4	3	4	2	5	2	3	5	5	4	3	5	5	5	5	4	3	5	4	4	3	4	2	5	3	3	4	5	4	3	12	9	2	47	259	6	335		2019-02-22 21:51:50	T	F	6	6	0	0	1.36	20
114			"base"	"interview"	2019-02-22 21:49:26	1	"30"	1	1	1	1	1	1	1	2	1	1	2	1	1	1	1	1	1	1	2	2	1	2	2	2	2	2	2	2	2	2	2	1	2	2	2	1	2	1	2	1	5	5	5	5	5	5	5	5	5	5	3	5	5	5	5	5	5	5	2	5	5	5	5	3	5	4	2	5	5	5	5	5	5	5	3	5	4	4	4	5	9	31	21	64	311	8	444		2019-02-22 21:56:50	T	F	6	6	0	0	0.76	4
116			"base"	"interview"	2019-02-22 21:51:10	1	"26"	1	1	1	1	1	1	1	2	2	1	2	2	1	1	1	1	1	1	1	1	1	2	2	2	2	2	2	2	1	2	2	1	2	2	1	1	2	2	2	2	4	4	5	4	2	5	5	5	2	5	4	5	3	5	5	4	5	5	4	3	4	5	5	4	4	2	3	5	3	5	3	5	4	5	4	2	3	5	4	2	19	13	22	41	270	7	372		2019-02-22 21:57:22	T	F	6	6	0	0	0.83	4
117			"base"	"interview"	2019-02-22 21:53:54	1	"27"	2	2	1	1	1	1	1	2	2	1	1	1	1	2	1	1	1	1	2	1	2	2	2	2	2	1	1	2	2	2	1	1	1	2	2	1	1	2	2	1	3	3	4	4	4	3	3	5	3	4	3	4	4	4	4	3	4	4	5	3	3	5	5	4	5	3	4	5	4	5	4	3	4	5	5	3	4	4	5	3	3	3	3	10	195	9	223		2019-02-22 21:57:37	T	F	6	6	0	0	2.22	79
118			"base"	"interview"	2019-02-22 21:56:56	2	"25"	2	2	1	1	1	1	1	2	2	2	2	2	2	1	1	1	2	1	2	2	2	2	1	1	2	2	1	2	2	1	2	2	1	2	1	2	2	2	2	2	5	3	1	1	2	1	2	5	5	3	1	5	5	1	1	3	3	1	3	2	5	5	5	3	5	5	1	5	5	5	5	3	5	3	1	3	5	5	5	3	16	10	9	472	1330	7	423		2019-02-22 22:27:40	T	F	6	6	0	0	0.65	2
123			"base"	"interview"	2019-02-22 21:59:26	2	"16"	2	2	1	1	2	2	1	2	2	1	1	1	1	2	1	1	1	1	2	2	1	2	2	2	1	1	2	2	1	1	1	1	2	2	1	1	1	1	2	1	5	5	5	5	5	3	5	5	5	5	5	5	5	5	5	5	5	5	5	5	5	5	5	5	5	5	5	5	5	5	5	5	5	5	5	5	5	5	5	5	8	11	14	28	234	8	303		2019-02-22 22:04:29	T	F	6	6	0	0	1.09	10
125			"base"	"interview"	2019-02-22 22:03:50	1	"23"	2	1	1	2	1	2	1	2	1	2	2	2	2	2	1	2	1	1	2	1	1	2	2	2	2	2	2	2	2	2	2	2	2	2	2	1	2	2	2	1	5	5	3	3	4	4	2	5	2	3	3	3	4	2	4	5	3	5	5	3	5	5	5	5	4	4	2	5	4	5	5	5	4	5	4	4	5	5	5	3	7	8	2	19	249	6	291		2019-02-22 22:08:41	T	F	6	6	0	0	1.68	34
132			"base"	"interview"	2019-02-22 22:51:30	2	"27"	1	1	2	2	1	1	2	2	2	1	1	2	2	2	1	1	2	1	2	2	2	2	2	2	2	2	1	1	2	2	2	2	2	2	2	1	2	2	1	1	2	4	4	2	3	3	2	4	2	4	2	4	5	3	3	3	4	4	4	4	4	5	5	4	4	4	3	3	3	4	3	3	4	5	4	4	3	5	3	3	35	20	14	46	229	8	352		2019-02-22 22:57:22	T	F	6	6	0	0	0.75	4
139			"base"	"interview"	2019-02-22 23:15:46	3	"66"	1	1	1	1	1	1	1	2	1	1	2	2	1	2	1	1	1	1	1	1	2	2	2	1	2	1	1	2	2	2	1	1	2	2	1	1	1	2	1	1	1	1	1	1	1	1	1	1	3	1	3	1	1	3	1	1	1	1	1	2	1	1	1	2	2	1	3	1	2	1	1	1	2	1	1	2	2	2	1	1	12	4	4	50	473	13	556		2019-02-22 23:25:03	T	F	6	6	0	0	1.19	18
140			"base"	"interview"	2019-02-22 23:18:41	2	"24"	1	1	1	1	1	1	1	1	1	2	2	1	1	2	1	1	2	1	2	2	1	2	2	1	1	1	1	1	1	1	1	1	1	1	2	2	2	2	2	1	5	5	4	5	4	5	5	5	5	3	3	5	5	4	5	5	3	3	4	4	4	4	1	5	2	4	5	5	4	4	4	3	3	5	3	3	4	4	5	3	8	10	3	22	663	11	717		2019-02-22 23:30:39	T	F	6	6	0	0	1.17	15
142			"base"	"interview"	2019-02-22 23:24:48	1	"33"	2	2	1	2	1	2	2	2	2	1	2	2	1	2	2	2	2	2	2	2	2	2	2	2	2	2	2	2	2	2	2	2	2	2	2	2	2	2	2	2	2	3	4	2	1	3	2	5	5	4	5	5	3	5	5	2	2	1	5	5	2	5	5	5	5	5	5	5	5	5	5	3	5	5	4	5	4	5	4	3	13	22	2	42	319	9	407		2019-02-22 23:31:36	T	F	6	6	0	0	1.12	13
146			"base"	"interview"	2019-02-22 23:37:16	1	"29"	1	1	1	2	1	1	1	2	2	1	2	2	1	2	1	1	1	1	1	1	1	2	2	1	2	1	1	2	1	2	1	2	2	2	1	1	1	2	2	1	5	5	5	5	2	5	2	3	3	5	1	5	2	3	5	3	3	4	5	5	2	5	5	2	5	5	5	5	2	4	5	5	5	5	1	1	5	5	4	3	3	1	1	17	437	8	467		2019-02-22 23:45:03	T	F	6	6	0	0	2.12	149
150			"base"	"interview"	2019-02-23 00:02:55	2	"18"	1	1	1	1	1	1	1	2	1	1	1	1	1	2	1	2	1	1	2	1	1	2	2	1	2	2	2	2	1	2	1	2	2	2	1	1	2	2	2	1	5	4	4	4	4	1	2	2	5	5	2	3	5	2	5	2	5	5	1	4	2	3	4	4	4	4	5	5	4	5	4	1	5	5	4	4	4	5	3	5	9	5	9	13	167	18	211		2019-02-23 00:06:36	T	F	6	6	0	0	1.54	35
151			"base"	"interview"	2019-02-23 00:11:10	1	"45"	1	1	2	1	1	2	1	1	1	2	2	1	1	2	1	1	2	1	1	2	2	2	2	2	2	2	2	2	2	2	2	1	2	2	2	2	1	2	2	2	3	3	4	3	3	3	3	1	2	3	4	2	2	3	2	3	3	3	3	3	4	3	3	3	3	3	3	3	3	3	3	3	3	3	2	2	3	3	3	2	19	42	44	96	765	9	906		2019-02-23 00:27:25	T	F	6	6	0	0	0.45	0
152			"base"	"interview"	2019-02-23 00:12:36	2	"29"	2	2	2	2	1	1	2	2	2	1	2	2	1	2	1	2	2	1	2	1	2	2	2	2	2	2	2	2	1	2	2	2	2	2	2	2	2	2	2	1	5	5	2	5	4	3	5	5	4	4	5	5	4	4	4	3	4	5	4	5	3	5	5	5	5	5	4	5	4	5	5	4	5	5	4	5	3	5	5	4	3	2	1	15	538	21	567		2019-02-23 00:22:16	T	F	6	6	0	0	2.03	108
153			"base"	"interview"	2019-02-23 00:19:35	1	"23"	1	1	1	1	1	1	1	2	1	1	1	1	2	2	1	1	1	1	2	2	1	2	2	1	1	1	1	2	2	2	1	1	1	2	2	1	2	2	1	2	5	5	5	5	2	5	4	4	5	5	5	5	2	5	5	3	5	5	2	4	5	4	4	5	4	5	3	3	2	5	5	5	2	5	3	5	5	5	4	3	12	10	2	31	272	6	333		2019-02-23 00:25:08	T	F	6	6	0	0	1.38	19
158			"base"	"interview"	2019-02-23 00:43:18	2	"23"	1	1	1	1	2	1	2	2	1	1	1	1	1	2	1	1	1	1	2	2	1	2	2	2	2	2	2	1	1	2	1	1	1	2	2	1	1	1	1	1	5	5	5	5	5	5	2	5	5	5	5	5	5	5	5	2	5	3	5	5	5	5	5	4	5	5	5	5	5	5	3	5	2	5	4	5	5	1	5	5	13	18	11	55	276	10	383		2019-02-23 00:49:41	T	F	6	6	0	0	0.78	2
161			"base"	"interview"	2019-02-23 01:51:36	2	"24"	1	1	1	1	1	2	2	2	2	1	1	1	1	1	1	1	1	1	2	2	1	2	2	2	2	1	1	2	2	2	1	2	1	2	1	2	2	2	1	2	4	5	2	5	5	3	3	4	3	5	5	5	5	4	5	1	2	5	5	5	5	5	5	5	5	4	2	5	3	3	5	4	3	5	3	5	5	5	3	5	247	17	5	43	455	11	543		2019-02-23 02:04:35	T	F	6	6	0	0	0.66	0
162			"base"	"interview"	2019-02-23 01:55:55	1	"25"	1	2	1	2	1	2	2	2	2	1	2	2	2	1	1	2	2	2	2	2	2	2	2	2	2	1	2	2	2	2	2	2	2	2	2	1	2	2	2	1	5	5	4	5	4	3	4	5	5	5	4	4	5	5	4	5	5	4	5	5	3	5	5	3	5	5	5	5	5	5	5	4	5	5	3	4	5	5	3	5	32	48	7	77	412	8	548		2019-02-23 02:05:39	T	F	6	6	0	0	0.6	0
163			"base"	"interview"	2019-02-23 02:21:29	1	"26"	1	1	1	2	1	1	1	2	2	1	2	2	1	1	1	2	1	1	2	2	1	2	2	2	2	1	2	2	1	2	2	1	2	2	2	1	2	2	2	1	3	4	4	3	2	4	4	4	2	3	3	4	5	2	4	4	4	4	5	3	2	5	5	4	5	5	4	5	4	2	5	5	5	5	4	2	4	5	5	3	15	35	27	49	442	8	576		2019-02-23 02:31:05	T	F	6	6	0	0	0.63	0
167			"base"	"interview"	2019-02-23 03:06:29	2	"28"	1	1	1	1	1	1	1	1	2	1	1	1	1	1	1	1	2	1	1	2	1	2	2	1	1	1	2	2	1	2	1	1	2	2	1	1	1	2	2	1	4	4	5	5	5	4	5	3	4	5	3	4	5	5	5	1	4	5	4	5	5	5	5	3	4	4	5	5	4	3	5	2	5	5	3	4	3	4	3	5	2	1	1	11	739	7	761		2019-02-23 03:19:10	T	F	6	6	0	0	2.26	176
170			"base"	"interview"	2019-02-23 03:09:27	1	"25"	1	1	1	1	1	1	2	2	1	1	2	2	1	2	1	1	1	2	2	1	2	2	2	1	1	1	1	2	1	2	1	1	2	2	1	2	2	2	2	1	1	5	5	5	5	5	3	3	5	5	4	4	5	2	3	5	4	2	2	5	3	5	5	3	2	3	3	4	4	5	5	3	3	5	5	4	2	2	5	2	2	2	1	10	297	7	319		2019-02-23 03:14:46	T	F	6	6	0	0	2.39	136
177			"base"	"interview"	2019-02-23 03:41:39	1	"25"	2	2	1	2	1	1	1	2	2	1	1	1	1	2	1	1	1	1	2	2	1	2	2	2	1	2	1	2	1	1	1	1	2	2	1	1	1	2	2	2	4	5	5	4	4	3	3	4	4	4	4	4	5	4	3	4	3	4	4	5	1	5	4	3	3	4	4	5	3	3	4	3	3	5	4	3	4	4	4	4	1	3	3	16	351	7	381		2019-02-23 03:48:01	T	F	6	6	0	0	1.97	122
181			"base"	"interview"	2019-02-23 04:17:51	2	"24"	1	2	1	2	2	1	2	2	2	1	2	2	2	1	2	2	1	2	2	2	2	2	2	2	1	1	2	2	2	2	2	2	2	2	2	1	2	2	2	1	4	5	4	5	5	4	5	5	5	4	4	4	5	4	5	5	4	4	5	5	3	5	5	3	4	4	5	5	5	5	5	5	5	5	5	5	5	5	4	5	35	20	29	46	307	7	444		2019-02-23 04:25:15	T	F	6	6	0	0	0.68	2
183			"base"	"interview"	2019-02-23 04:28:04	1	"25"	1	1	1	1	1	1	1	2	1	1	1	1	1	1	1	1	1	1	2	2	1	2	2	2	1	1	1	2	1	2	1	1	2	2	2	2	1	2	1	1	1	5	5	5	3	5	3	5	5	1	5	5	1	4	5	5	5	5	2	4	5	5	5	4	4	3	5	5	5	4	5	5	4	5	4	4	3	5	3	5	11	13	24	57	1300	8	461		2019-02-23 04:51:37	T	F	6	6	0	0	0.67	1
186			"base"	"interview"	2019-02-23 06:21:20	1	"20"	1	1	1	1	1	1	1	1	1	1	1	1	1	1	1	1	1	1	1	1	2	2	1	1	1	1	1	2	2	2	1	1	2	2	1	1	1	2	1	1	5	5	5	5	5	5	5	5	5	5	5	5	5	5	5	5	5	5	5	5	5	5	5	5	5	5	5	5	5	5	5	5	5	5	5	5	5	5	5	5	12	4	3	10	140	8	177		2019-02-23 06:24:17	T	F	6	6	0	0	2	52
187			"base"	"interview"	2019-02-23 07:15:14	2	"24"	1	1	1	1	2	1	2	1	1	1	2	2	1	2	1	2	1	1	1	1	1	2	2	2	2	2	1	2	1	2	2	1	2	2	1	1	2	1	2	1	4	5	5	5	5	3	5	3	4	5	4	4	5	5	4	4	3	5	5	4	5	5	5	4	5	5	4	5	4	5	4	4	4	5	4	4	5	3	3	5	16	16	2	28	1895	6	416		2019-02-23 07:47:57	T	F	6	6	0	0	1.11	17
190			"base"	"interview"	2019-02-23 09:22:17	2	"22"	2	2	1	1	2	1	2	1	2	2	1	2	1	2	1	2	1	1	1	2	1	2	2	2	2	1	1	2	1	2	1	2	2	2	1	2	2	1	2	1	4	4	5	5	5	4	5	4	4	4	2	5	5	4	5	4	4	5	3	5	5	5	5	4	5	2	3	5	5	5	5	2	2	5	5	2	4	4	5	4	2	2	2	183	390	9	438		2019-02-23 09:32:05	T	F	6	6	0	0	1.74	94
196			"base"	"interview"	2019-02-23 10:56:29	2	"24"	1	1	1	1	1	1	1	2	1	1	2	1	1	2	1	2	1	1	2	1	1	2	2	2	1	2	1	2	1	2	2	1	2	2	1	1	2	2	2	1	5	4	5	2	3	5	4	5	1	5	4	1	3	4	5	2	5	5	5	4	5	5	5	5	2	5	1	5	4	5	4	2	4	5	2	5	4	1	5	4	8	5	5	23	314	5	360		2019-02-23 11:02:29	T	F	6	6	0	0	1.49	24
201			"base"	"interview"	2019-02-23 12:26:57	1	"26"	1	1	2	1	1	1	2	1	1	1	2	2	1	2	1	2	1	1	2	1	2	2	2	1	2	2	2	2	1	2	2	1	2	2	2	1	2	2	1	1	5	5	2	2	3	5	3	2	3	3	4	2	1	4	4	1	2	5	4	4	3	5	3	4	5	3	2	2	4	2	5	5	4	5	2	3	2	4	4	3	58	14	22	63	636	11	758		2019-02-23 12:40:21	T	F	6	6	0	0	0.51	0
202			"base"	"interview"	2019-02-23 12:34:19	2	"24"	1	1	1	2	2	1	2	2	1	1	1	1	1	1	1	1	2	1	2	2	1	2	2	1	2	2	1	1	1	2	2	1	1	2	1	1	2	2	2	2	5	5	5	5	5	5	3	4	5	5	4	5	4	5	5	4	4	4	5	5	5	5	5	4	4	4	4	4	5	5	4	4	4	5	4	4	4	4	5	4	37	51	2	11	476	6	544		2019-02-23 12:44:02	T	F	6	6	0	0	1.34	32
204			"base"	"interview"	2019-02-23 12:36:44	1	"26"	1	1	1	2	1	1	2	2	2	1	1	1	1	2	2	1	2	1	2	1	1	2	2	2	2	2	2	2	2	2	2	1	1	2	1	1	2	2	2	1	5	5	2	5	4	4	3	4	2	4	2	4	5	3	4	4	3	4	5	2	1	5	5	2	3	3	4	5	5	5	4	5	2	5	3	4	1	5	3	3	2	0	2	30	308	7	349		2019-02-23 12:42:33	T	F	6	6	0	0	1.98	140
205			"base"	"interview"	2019-02-23 12:42:42	1	"26"	1	2	1	1	1	1	1	2	1	1	1	1	2	2	1	1	1	1	2	2	1	2	2	1	2	1	1	1	1	1	1	1	2	2	1	1	2	1	1	1	4	5	5	3	5	3	3	5	3	5	3	4	5	5	4	3	4	5	5	3	3	4	4	5	5	3	3	3	5	4	5	3	4	5	4	5	2	5	3	3	106	11	2	70	818	7	920		2019-02-23 12:59:36	T	F	6	6	0	0	0.95	14
206			"base"	"interview"	2019-02-23 13:16:18	2	"25"	1	2	2	1	1	1	1	1	2	2	1	1	2	1	1	1	2	1	2	1	2	2	2	2	2	1	2	2	1	2	2	1	2	2	1	1	2	2	2	1	3	5	5	5	4	3	5	5	5	5	3	5	5	3	4	3	5	4	5	5	5	5	5	4	5	4	5	5	5	5	5	5	5	5	2	5	4	5	4	3	13	15	4	23	241	5	301		2019-02-23 13:21:19	T	F	6	6	0	0	1.23	14
207			"base"	"interview"	2019-02-23 13:16:26	1	"24"	1	1	1	1	1	1	1	1	1	1	2	1	1	1	1	1	1	1	1	1	1	2	2	2	2	1	1	2	1	2	1	1	1	2	1	1	2	2	2	1	4	5	5	5	5	5	5	5	4	5	1	5	5	4	5	5	5	5	3	5	5	5	5	3	4	5	5	4	5	3	5	5	2	5	4	5	3	4	3	5	129	3	8	18	243	6	290		2019-02-23 13:23:13	T	F	6	6	0	0	1.38	37
222			"base"	"interview"	2019-02-23 16:40:38	2	"46"	2	1	2	1	1	1	1	2	2	2	2	2	1	2	2	1	2	1	2	2	2	2	2	1	2	2	2	1	2	2	2	1	2	2	2	1	1	2	1	2	4	3	4	1	1	1	1	4	4	4	4	4	1	4	4	1	4	1	4	4	4	4	4	1	4	4	4	1	4	1	4	1	4	4	4	1	1	4	1	4	31	28	19	46	404	9	537		2019-02-23 16:49:35	T	F	6	6	0	0	0.59	0
223			"base"	"interview"	2019-02-23 17:12:41	2	"23"	2	1	2	2	2	2	2	2	2	1	2	2	2	2	1	1	1	2	2	2	2	2	2	2	2	2	2	2	2	2	2	2	2	2	2	2	2	2	2	2	5	3	4	5	3	5	5	5	2	4	4	5	4	5	5	3	4	4	5	5	5	5	5	4	5	5	5	5	4	5	5	3	4	5	2	4	4	5	2	5	16	24	27	76	4492	26	499		2019-02-23 18:30:22	T	F	6	6	0	0	0.37	0
224			"base"	"interview"	2019-02-23 17:19:59	1	"22"	1	1	2	2	1	2	2	1	2	1	1	2	2	2	1	2	2	1	2	2	2	2	2	1	2	2	2	2	2	1	2	2	1	2	2	1	2	1	2	1	4	4	3	2	3	1	3	3	1	5	2	4	2	4	2	1	2	4	4	5	1	5	5	2	5	4	2	3	3	1	5	2	3	5	3	3	2	4	4	3	10	17	22	50	436	14	549		2019-02-23 17:29:08	T	F	6	6	0	0	0.69	2
226			"base"	"interview"	2019-02-23 18:42:28	1	"24"	1	1	1	1	1	1	1	1	2	1	2	1	1	1	1	1	1	1	2	1	1	2	2	1	2	2	1	2	1	2	2	1	1	2	2	1	2	1	1	1	1	4	5	4	2	5	1	2	1	4	3	1	5	2	4	3	4	4	2	4	4	5	5	2	4	4	4	5	4	4	4	3	1	5	2	5	2	2	1	4	15	4	2	31	535	8	595		2019-02-23 18:52:23	T	F	6	6	0	0	1.48	29
233			"base"	"interview"	2019-02-23 21:16:27	2	"25"	1	1	2	2	2	1	1	1	1	2	1	2	2	1	2	2	2	2	1	2	1	2	2	2	2	2	1	2	1	2	2	1	1	2	2	2	1	1	2	2	3	3	3	4	3	2	3	5	3	3	2	5	3	2	5	4	3	5	3	5	4	5	5	5	3	5	3	4	3	5	5	5	3	5	5	5	4	2	5	5	1	2	2	8	331	6	350		2019-02-23 21:22:17	T	F	6	6	0	0	2.31	164
234			"base"	"interview"	2019-02-23 21:44:16	2	"23"	1	1	2	2	1	1	1	2	1	1	2	2	1	2	1	2	1	1	2	1	2	2	2	1	2	2	2	2	1	2	2	2	1	2	1	1	2	1	2	2	5	5	4	3	4	3	5	4	4	5	3	4	5	4	5	3	4	5	4	5	4	5	5	4	5	5	3	5	4	4	3	4	4	5	5	5	3	4	4	3	2107	17	29	38	656	6	758		2019-02-23 22:31:49	T	F	6	6	0	0	0.6	3
239			"base"	"interview"	2019-02-24 01:06:50	2	"32"	1	1	1	1	1	1	1	1	1	1	1	1	1	1	1	2	1	1	1	1	1	2	2	1	1	1	1	1	1	1	1	1	1	2	1	1	1	1	1	1	5	5	5	5	5	5	5	5	5	5	5	5	5	5	5	5	5	5	5	5	5	5	5	5	5	5	5	3	5	5	5	5	5	5	5	5	5	5	5	5	3	1	2	28	221	7	262		2019-02-24 01:11:12	T	F	6	6	0	0	2.06	128
240			"base"	"interview"	2019-02-24 05:12:36	1	"25"	1	1	1	2	2	1	2	2	2	1	2	2	1	2	1	2	2	1	2	1	1	2	2	2	2	2	2	2	1	2	2	2	2	2	1	1	2	2	1	2	3	2	2	3	3	1	3	3	3	2	3	5	2	3	1	3	3	2	5	2	2	4	5	4	4	4	3	4	3	5	3	2	4	5	2	3	5	5	3	3	28	8	5	23	4154	8	420		2019-02-24 06:23:03	T	F	6	6	0	0	0.89	7
243			"base"	"interview"	2019-02-24 09:09:42	2	"27"	1	1	1	2	1	1	2	2	1	1	2	1	1	2	1	2	1	1	2	2	1	2	2	1	1	2	1	2	1	1	1	1	2	2	1	1	1	1	1	1	4	4	5	4	3	4	3	3	4	3	4	3	3	4	3	3	3	4	4	3	3	5	4	3	2	2	3	4	3	4	4	4	4	5	3	3	1	4	3	3	11	8	4	18	343	6	390		2019-02-24 09:16:12	T	F	6	6	0	0	1.32	16
244			"base"	"interview"	2019-02-24 12:37:58	1	"28"	1	1	1	1	1	1	1	1	1	1	2	1	1	1	1	1	1	1	1	1	1	2	2	1	2	1	1	2	1	1	1	1	2	2	1	1	1	2	1	1	5	4	5	4	5	4	4	4	4	5	4	4	5	4	4	4	5	5	4	4	4	5	4	4	4	3	3	3	4	4	3	5	3	5	4	4	4	4	4	5	3	2	2	10	202	6	225		2019-02-24 12:41:43	T	F	6	6	0	0	2.43	105
247			"base"	"interview"	2019-02-24 22:09:18	1	"27"	1	1	1	2	2	2	2	2	2	1	2	2	1	1	1	2	2	2	2	2	1	2	2	1	2	1	2	2	2	2	2	1	2	2	2	1	2	2	2	2	2	4	2	3	2	3	3	2	3	4	3	2	2	2	3	4	2	2	4	3	4	5	5	1	4	2	4	5	4	5	3	3	5	3	3	3	4	2	3	3	8	8	3	48	493	6	566		2019-02-24 22:18:44	T	F	6	6	0	0	1.22	16
253			"base"	"interview"	2019-02-25 06:07:40	1	"25"	1	2	2	2	1	1	1	2	2	1	2	2	2	2	1	1	2	1	2	1	1	2	2	2	1	2	2	2	1	2	2	2	2	2	2	2	2	2	2	1	4	2	4	5	2	2	2	5	5	4	5	4	3	5	5	2	4	5	5	4	4	5	5	5	2	5	5	5	2	5	4	2	2	5	2	4	5	4	5	1	34	33	47	64	503	10	649		2019-02-25 06:19:11	T	F	6	6	0	0	0.47	0
254			"base"	"interview"	2019-02-25 11:12:01	1	"23"	1	1	1	1	1	1	1	2	1	1	1	1	1	1	1	1	1	1	2	1	2	2	2	1	1	1	1	2	1	2	2	1	2	2	1	1	1	1	1	1	4	5	5	5	5	5	5	5	4	5	5	5	4	5	5	4	4	5	4	4	3	5	4	4	4	4	5	4	4	4	5	5	2	5	5	5	5	5	4	5	4	17	19	17	416	8	481		2019-02-25 11:20:02	T	F	6	6	0	0	1.28	24
262			"base"	"interview"	2019-02-26 07:25:39	2	"25"	2	2	1	1	1	1	1	2	1	1	2	1	1	1	1	2	1	1	1	2	1	2	2	2	2	2	2	2	2	2	1	1	2	2	2	1	2	2	2	1	3	4	4	3	4	3	4	4	3	3	3	3	3	3	5	4	3	4	3	3	3	5	5	4	5	3	4	5	4	5	3	3	4	5	4	4	3	4	4	3	24	17	15	58	417	13	544		2019-02-26 07:34:43	T	F	6	6	0	0	0.59	0
263			"base"	"interview"	2019-02-26 08:59:39	2	"27"	1	1	1	2	2	1	1	2	1	1	1	1	1	2	1	2	2	1	2	2	1	2	2	2	2	2	2	2	2	2	2	2	2	2	2	1	2	2	2	2	2	3	3	1	1	5	3	2	2	5	3	3	2	2	4	4	2	3	5	1	3	5	5	4	1	3	2	2	4	2	3	2	4	5	2	2	3	5	4	4	21	15	7	38	512	7	600		2019-02-26 09:09:39	T	F	6	6	0	0	0.79	1
271			"base"	"interview"	2019-02-27 08:18:17	1	"30"	1	1	1	1	1	1	1	2	1	1	2	1	1	2	1	2	2	1	2	2	1	2	2	2	1	1	2	2	1	2	1	1	1	2	2	1	1	2	2	1	5	5	5	4	4	5	4	5	3	4	3	5	4	5	4	5	4	4	5	5	4	5	5	4	4	4	4	5	4	5	4	4	4	5	5	3	4	4	5	3	7	2	2	24	218	8	261		2019-02-27 08:22:38	T	F	6	6	0	0	1.86	66
272			"base"	"interview"	2019-02-27 09:13:33	1	"25"	1	1	1	1	1	1	2	2	2	1	1	1	2	1	1	1	2	1	2	2	2	2	2	1	1	2	2	2	1	2	2	2	1	2	2	1	2	1	2	1	3	4	3	3	1	1	2	4	4	4	4	2	4	3	4	4	5	5	5	5	5	5	5	3	4	5	4	5	4	4	4	5	3	5	4	3	3	4	5	4	11	12	3	11	344	5	386		2019-02-27 09:19:59	T	F	6	6	0	0	1.55	28
277			"base"	"interview"	2019-02-27 10:01:02	1	"24"	1	1	1	1	1	1	2	1	1	1	2	1	1	1	1	2	2	1	2	1	2	2	2	1	2	2	2	2	1	1	2	2	2	2	1	1	2	2	2	1	4	4	4	3	4	4	5	4	1	5	5	4	3	4	4	5	4	3	5	4	4	5	5	3	5	5	4	5	4	3	4	3	3	5	2	3	4	5	3	4	2	25	9	22	347	6	411		2019-02-27 10:07:53	T	F	6	6	0	0	1.3	48
290			"base"	"interview"	2019-02-28 00:59:53	2	"24"	1	2	1	1	1	2	2	2	2	1	2	1	2	2	1	1	1	1	1	1	1	2	2	2	2	2	2	2	1	2	2	2	1	2	1	1	1	2	2	1	2	4	3	2	1	2	3	5	4	4	5	2	1	4	3	2	3	3	2	2	4	5	5	2	5	3	4	5	4	3	3	2	3	5	3	3	2	3	3	2	23	32	3	53	341	8	460		2019-02-28 01:07:33	T	F	6	6	0	0	0.86	6
291			"base"	"interview"	2019-02-28 10:12:38	1	"30"	1	1	2	1	1	1	1	2	1	1	1	1	1	1	1	1	1	1	2	2	1	2	2	1	1	1	1	2	1	1	1	2	2	2	2	1	1	1	1	1	5	5	1	5	5	5	5	5	3	5	3	3	5	4	5	4	5	3	2	5	5	5	5	5	4	3	5	1	2	2	3	5	5	5	4	5	2	4	2	5	33	16	12	63	1055	8	480		2019-02-28 10:32:25	T	F	6	6	0	0	0.56	0
